[
{"attributes": {"Confirmed": 1227, "Long_": "37.61722", "Deaths": 6, "Province_State": "Moscow", "Country_Region": "Russia", "Lat": "55.75583", "Recovered": 29}},
{"attributes": {"Confirmed": 13, "Long_": "56.133", "Deaths": 0, "Province_State": "Perm Krai", "Country_Region": "Russia", "Lat": "59.233", "Recovered": 0}},
{"attributes": {"Confirmed": 14, "Long_": "91.667", "Deaths": 0, "Province_State": "Krasnoyarsk Krai", "Country_Region": "Russia", "Lat": "59.883", "Recovered": 3}},
{"attributes": {"Confirmed": 14, "Long_": "50.450", "Deaths": 0, "Province_State": "Samara Oblast", "Country_Region": "Russia", "Lat": "53.450", "Recovered": 1}},
{"attributes": {"Confirmed": 12, "Long_": "49.833", "Deaths": 0, "Province_State": "Kirov Oblast", "Country_Region": "Russia", "Lat": "58.767", "Recovered": 2}},
{"attributes": {"Confirmed": 12, "Long_": "37.583", "Deaths": 0, "Province_State": "Tula Oblast", "Country_Region": "Russia", "Lat": "53.917", "Recovered": 0}},
{"attributes": {"Confirmed": 11, "Long_": "44.533", "Deaths": 0, "Province_State": "Nizhny Novgorod Oblast", "Country_Region": "Russia", "Lat": "56.483", "Recovered": 1}},
{"attributes": {"Confirmed": 13, "Long_": "109.333", "Deaths": 0, "Province_State": "Buryatia", "Country_Region": "Russia", "Lat": "53.800", "Recovered": 0}},
{"attributes": {"Confirmed": 10, "Long_": "39.150", "Deaths": 0, "Province_State": "Lipetsk Oblast", "Country_Region": "Russia", "Lat": "52.700", "Recovered": 3}},
{"attributes": {"Confirmed": 11, "Long_": "31.750", "Deaths": 0, "Province_State": "Leningrad Oblast", "Country_Region": "Russia", "Lat": "60.050", "Recovered": 0}},
{"attributes": {"Confirmed": 14, "Long_": "50.933", "Deaths": 0, "Province_State": "Tatarstan", "Country_Region": "Russia", "Lat": "55.550", "Recovered": 1}},
{"attributes": {"Confirmed": 12, "Long_": "21.417", "Deaths": 0, "Province_State": "Kaliningrad Oblast", "Country_Region": "Russia", "Lat": "54.800", "Recovered": 2}},
{"attributes": {"Confirmed": 14, "Long_": "60.333", "Deaths": 0, "Province_State": "Chelyabinsk Oblast", "Country_Region": "Russia", "Lat": "54.533", "Recovered": 0}},
{"attributes": {"Confirmed": 15, "Long_": "129.167", "Deaths": 0, "Province_State": "Yakutia", "Country_Region": "Russia", "Lat": "66.400", "Recovered": 0}},
{"attributes": {"Confirmed": 15, "Long_": "35.300", "Deaths": 0, "Province_State": "Republic of Crimea", "Country_Region": "Russia", "Lat": "45.400", "Recovered": 0}},
{"attributes": {"Confirmed": 17, "Long_": "39.433", "Deaths": 0, "Province_State": "Krasnodar Krai", "Country_Region": "Russia", "Lat": "45.367", "Recovered": 1}},
{"attributes": {"Confirmed": 1, "Long_": "118.000", "Deaths": 0, "Province_State": "Zabaykalsky Krai", "Country_Region": "Russia", "Lat": "54.000", "Recovered": 1}},
{"attributes": {"Confirmed": 1, "Long_": "47.917", "Deaths": 0, "Province_State": "Ulyanovsk Oblast", "Country_Region": "Russia", "Lat": "53.950", "Recovered": 0}},
{"attributes": {"Confirmed": 1, "Long_": "43.683", "Deaths": 0, "Province_State": "Kostroma Oblast", "Country_Region": "Russia", "Lat": "58.550", "Recovered": 0}},
{"attributes": {"Confirmed": 1, "Long_": "64.750", "Deaths": 0, "Province_State": "Kurgan Oblast", "Country_Region": "Russia", "Lat": "55.567", "Recovered": 0}},
{"attributes": {"Confirmed": 1, "Long_": "33.000", "Deaths": 0, "Province_State": "Smolensk Oblast", "Country_Region": "Russia", "Lat": "55.000", "Recovered": 0}},
{"attributes": {"Confirmed": 1, "Long_": "127.833", "Deaths": 0, "Province_State": "Amur Oblast", "Country_Region": "Russia", "Lat": "53.550", "Recovered": 0}},
{"attributes": {"Confirmed": 1, "Long_": "82.617", "Deaths": 0, "Province_State": "Altai Krai", "Country_Region": "Russia", "Lat": "52.767", "Recovered": 0}},
{"attributes": {"Confirmed": 1, "Long_": "45.317", "Deaths": 0, "Province_State": "Kalmykia", "Country_Region": "Russia", "Lat": "46.567", "Recovered": 0}},
{"attributes": {"Confirmed": 1, "Long_": "47.100", "Deaths": 0, "Province_State": "Chuvashia", "Country_Region": "Russia", "Lat": "55.550", "Recovered": 0}},
{"attributes": {"Confirmed": 2, "Long_": "40.450", "Deaths": 0, "Province_State": "Vologda Oblast", "Country_Region": "Russia", "Lat": "60.083", "Recovered": 0}},
{"attributes": {"Confirmed": 2, "Long_": "47.867", "Deaths": 0, "Province_State": "Mari El", "Country_Region": "Russia", "Lat": "56.700", "Recovered": 0}},
{"attributes": {"Confirmed": 3, "Long_": "87.233", "Deaths": 0, "Province_State": "Kemerovo Oblast", "Country_Region": "Russia", "Lat": "54.933", "Recovered": 2}},
{"attributes": {"Confirmed": 3, "Long_": "82.133", "Deaths": 0, "Province_State": "Tomsk Oblast", "Country_Region": "Russia", "Lat": "58.750", "Recovered": 1}},
{"attributes": {"Confirmed": 3, "Long_": "39.200", "Deaths": 0, "Province_State": "Yaroslavl Oblast", "Country_Region": "Russia", "Lat": "57.867", "Recovered": 0}},
{"attributes": {"Confirmed": 2, "Long_": "40.617", "Deaths": 0, "Province_State": "Vladimir Oblast", "Country_Region": "Russia", "Lat": "56.083", "Recovered": 0}},
{"attributes": {"Confirmed": 2, "Long_": "41.183", "Deaths": 0, "Province_State": "Rostov Oblast", "Country_Region": "Russia", "Lat": "47.867", "Recovered": 0}},
{"attributes": {"Confirmed": 2, "Long_": "106.000", "Deaths": 0, "Province_State": "Irkutsk Oblast", "Country_Region": "Russia", "Lat": "57.367", "Recovered": 0}},
{"attributes": {"Confirmed": 2, "Long_": "134.667", "Deaths": 0, "Province_State": "Primorsky Krai", "Country_Region": "Russia", "Lat": "45.333", "Recovered": 0}},
{"attributes": {"Confirmed": 3, "Long_": "44.450", "Deaths": 0, "Province_State": "Mordovia", "Country_Region": "Russia", "Lat": "54.433", "Recovered": 0}},
{"attributes": {"Confirmed": 3, "Long_": "41.567", "Deaths": 0, "Province_State": "Tambov Oblast", "Country_Region": "Russia", "Lat": "52.717", "Recovered": 0}},
{"attributes": {"Confirmed": 3, "Long_": "35.433", "Deaths": 0, "Province_State": "Kaluga Oblast", "Country_Region": "Russia", "Lat": "54.433", "Recovered": 0}},
{"attributes": {"Confirmed": 3, "Long_": "36.433", "Deaths": 0, "Province_State": "Oryol Oblast", "Country_Region": "Russia", "Lat": "52.850", "Recovered": 0}},
{"attributes": {"Confirmed": 3, "Long_": "73.267", "Deaths": 0, "Province_State": "Omsk Oblast", "Country_Region": "Russia", "Lat": "56.217", "Recovered": 0}},
{"attributes": {"Confirmed": 3, "Long_": "32.383", "Deaths": 0, "Province_State": "Novgorod Oblast", "Country_Region": "Russia", "Lat": "58.433", "Recovered": 0}},
{"attributes": {"Confirmed": 3, "Long_": "33.400", "Deaths": 0, "Province_State": "Bryansk Oblast", "Country_Region": "Russia", "Lat": "52.950", "Recovered": 0}},
{"attributes": {"Confirmed": 3, "Long_": "90.000", "Deaths": 0, "Province_State": "Khakassia", "Country_Region": "Russia", "Lat": "53.500", "Recovered": 0}},
{"attributes": {"Confirmed": 4, "Long_": "34.617", "Deaths": 0, "Province_State": "Tver Oblast", "Country_Region": "Russia", "Lat": "57.150", "Recovered": 2}},
{"attributes": {"Confirmed": 4, "Long_": "69.000", "Deaths": 0, "Province_State": "Tyumen Oblast", "Country_Region": "Russia", "Lat": "57.833", "Recovered": 1}},
{"attributes": {"Confirmed": 4, "Long_": "44.117", "Deaths": 0, "Province_State": "Volgograd Oblast", "Country_Region": "Russia", "Lat": "49.733", "Recovered": 0}},
{"attributes": {"Confirmed": 4, "Long_": "52.750", "Deaths": 0, "Province_State": "Udmurtia", "Country_Region": "Russia", "Lat": "57.283", "Recovered": 0}},
{"attributes": {"Confirmed": 4, "Long_": "46.733", "Deaths": 0, "Province_State": "Saratov Oblast", "Country_Region": "Russia", "Lat": "51.783", "Recovered": 0}},
{"attributes": {"Confirmed": 4, "Long_": "46.883", "Deaths": 0, "Province_State": "Dagestan", "Country_Region": "Russia", "Lat": "43.100", "Recovered": 0}},
{"attributes": {"Confirmed": 4, "Long_": "40.000", "Deaths": 0, "Province_State": "Adygea", "Country_Region": "Russia", "Lat": "44.650", "Recovered": 0}},
{"attributes": {"Confirmed": 4, "Long_": "37.450", "Deaths": 0, "Province_State": "Belgorod Oblast", "Country_Region": "Russia", "Lat": "50.767", "Recovered": 0}},
{"attributes": {"Confirmed": 4, "Long_": "142.600", "Deaths": 0, "Province_State": "Sakhalin Oblast", "Country_Region": "Russia", "Lat": "50.550", "Recovered": 0}},
{"attributes": {"Confirmed": 5, "Long_": "34.567", "Deaths": 0, "Province_State": "Murmansk Oblast", "Country_Region": "Russia", "Lat": "68.033", "Recovered": 1}},
{"attributes": {"Confirmed": 5, "Long_": "40.600", "Deaths": 0, "Province_State": "Ryazan Oblast", "Country_Region": "Russia", "Lat": "54.400", "Recovered": 0}},
{"attributes": {"Confirmed": 5, "Long_": "70.167", "Deaths": 0, "Province_State": "Khanty-Mansi Autonomous Okrug", "Country_Region": "Russia", "Lat": "62.250", "Recovered": 0}},
{"attributes": {"Confirmed": 5, "Long_": "56.267", "Deaths": 0, "Province_State": "Bashkortostan", "Country_Region": "Russia", "Lat": "54.467", "Recovered": 0}},
{"attributes": {"Confirmed": 5, "Long_": "33.5333", "Deaths": 0, "Province_State": "Sevastopol", "Country_Region": "Russia", "Lat": "44.6", "Recovered": 0}},
{"attributes": {"Confirmed": 6, "Long_": "40.150", "Deaths": 0, "Province_State": "Voronezh Oblast", "Country_Region": "Russia", "Lat": "51.050", "Recovered": 0}},
{"attributes": {"Confirmed": 6, "Long_": "43.267", "Deaths": 0, "Province_State": "Stavropol Krai", "Country_Region": "Russia", "Lat": "45.050", "Recovered": 0}},
{"attributes": {"Confirmed": 7, "Long_": "55.600", "Deaths": 1, "Province_State": "Orenburg Oblast", "Country_Region": "Russia", "Lat": "52.133", "Recovered": 0}},
{"attributes": {"Confirmed": 7, "Long_": "44.567", "Deaths": 0, "Province_State": "Penza Oblast", "Country_Region": "Russia", "Lat": "53.250", "Recovered": 0}},
{"attributes": {"Confirmed": 6, "Long_": "43.400", "Deaths": 0, "Province_State": "Kabardino-Balkaria", "Country_Region": "Russia", "Lat": "43.583", "Recovered": 0}},
{"attributes": {"Confirmed": 9, "Long_": "79.550", "Deaths": 0, "Province_State": "Novosibirsk Oblast", "Country_Region": "Russia", "Lat": "55.450", "Recovered": 0}},
{"attributes": {"Confirmed": 7, "Long_": "136.833", "Deaths": 0, "Province_State": "Khabarovsk Krai", "Country_Region": "Russia", "Lat": "54.800", "Recovered": 0}},
{"attributes": {"Confirmed": 9, "Long_": "29.250", "Deaths": 1, "Province_State": "Pskov Oblast", "Country_Region": "Russia", "Lat": "57.317", "Recovered": 0}},
{"attributes": {"Confirmed": 7, "Long_": "43.000", "Deaths": 0, "Province_State": "Arkhangelsk Oblast", "Country_Region": "Russia", "Lat": "63.500", "Recovered": 0}},
{"attributes": {"Confirmed": 9, "Long_": "41.517", "Deaths": 0, "Province_State": "Ivanovo Oblast", "Country_Region": "Russia", "Lat": "57.017", "Recovered": 0}},
{"attributes": {"Confirmed": 9, "Long_": "45.717", "Deaths": 0, "Province_State": "Chechnya", "Country_Region": "Russia", "Lat": "43.400", "Recovered": 0}},
{"attributes": {"Confirmed": 22, "Long_": "54.467", "Deaths": 0, "Province_State": "Komi Republic", "Country_Region": "Russia", "Lat": "64.283", "Recovered": 0}},
{"attributes": {"Confirmed": 24, "Long_": "61.333", "Deaths": 0, "Province_State": "Sverdlovsk Oblast", "Country_Region": "Russia", "Lat": "58.700", "Recovered": 1}},
{"attributes": {"Confirmed": 119, "Long_": "36.967", "Deaths": 0, "Province_State": "Moscow Oblast", "Country_Region": "Russia", "Lat": "55.700", "Recovered": 10}},
{"attributes": {"Confirmed": 50, "Long_": "30.30861", "Deaths": 1, "Province_State": "Saint Petersburg", "Country_Region": "Russia", "Lat": "59.93750", "Recovered": 5}}
]