{
  "objectIdFieldName" : "OBJECTID", 
  "uniqueIdField" : 
  {
    "name" : "OBJECTID", 
    "isSystemMaintained" : true
  }, 
  "globalIdFieldName" : "", 
  "geometryType" : "esriGeometryPoint", 
  "spatialReference" : {
    "wkid" : 4326, 
    "latestWkid" : 4326
  }, 
  "fields" : [
    {
      "name" : "Province_State", 
      "type" : "esriFieldTypeString", 
      "alias" : "Province/State", 
      "sqlType" : "sqlTypeOther", 
      "length" : 8000, 
      "domain" : null, 
      "defaultValue" : null
    }, 
    {
      "name" : "Confirmed", 
      "type" : "esriFieldTypeInteger", 
      "alias" : "Confirmed", 
      "sqlType" : "sqlTypeOther", 
      "domain" : null, 
      "defaultValue" : null
    }, 
    {
      "name" : "Recovered", 
      "type" : "esriFieldTypeInteger", 
      "alias" : "Recovered", 
      "sqlType" : "sqlTypeOther", 
      "domain" : null, 
      "defaultValue" : null
    }, 
    {
      "name" : "Deaths", 
      "type" : "esriFieldTypeInteger", 
      "alias" : "Deaths", 
      "sqlType" : "sqlTypeOther", 
      "domain" : null, 
      "defaultValue" : null
    }, 
    {
      "name" : "Long_", 
      "type" : "esriFieldTypeDouble", 
      "alias" : "Long", 
      "sqlType" : "sqlTypeOther", 
      "domain" : null, 
      "defaultValue" : null
    }, 
    {
      "name" : "Lat", 
      "type" : "esriFieldTypeDouble", 
      "alias" : "Lat", 
      "sqlType" : "sqlTypeOther", 
      "domain" : null, 
      "defaultValue" : null
    }, 
    {
      "name" : "Country_Region", 
      "type" : "esriFieldTypeString", 
      "alias" : "Country/Region", 
      "sqlType" : "sqlTypeOther", 
      "length" : 8000, 
      "domain" : null, 
      "defaultValue" : null
    }, 
    {
      "name" : "Province_State_Child", 
      "type" : "esriFieldTypeString", 
      "alias" : "Province_State_Child", 
      "sqlType" : "sqlTypeOther", 
      "length" : 0, 
      "domain" : null, 
      "defaultValue" : null
    }
  ], 
  "features" : [
    {
      "attributes" : {
        "Province_State" : "Alberta", 
        "Confirmed" : 754, 
        "Recovered" : 0, 
        "Deaths" : 9, 
        "Long_" : -116.5765, 
        "Lat" : 53.9333, 
        "Country_Region" : "Canada", 
        "Province_State_Child" : null
      }
    }, 
    {
      "attributes" : {
        "Province_State" : "Anguilla", 
        "Confirmed" : 2, 
        "Recovered" : 0, 
        "Deaths" : 0, 
        "Long_" : -63.0686, 
        "Lat" : 18.2206, 
        "Country_Region" : "United Kingdom", 
        "Province_State_Child" : null
      }
    }, 
    {
      "attributes" : {
        "Province_State" : "Anhui", 
        "Confirmed" : 990, 
        "Recovered" : 984, 
        "Deaths" : 6, 
        "Long_" : 117.2264, 
        "Lat" : 31.8257, 
        "Country_Region" : "China", 
        "Province_State_Child" : null
      }
    }, 
    {
      "attributes" : {
        "Province_State" : "Aruba", 
        "Confirmed" : 55, 
        "Recovered" : 1, 
        "Deaths" : 0, 
        "Long_" : -69.9683, 
        "Lat" : 12.5211, 
        "Country_Region" : "Netherlands", 
        "Province_State_Child" : null
      }
    }, 
    {
      "attributes" : {
        "Province_State" : "Australian Capital Territory", 
        "Confirmed" : 84, 
        "Recovered" : 8, 
        "Deaths" : 1, 
        "Long_" : 149.0124, 
        "Lat" : -35.4735, 
        "Country_Region" : "Australia", 
        "Province_State_Child" : null
      }
    }, 
    {
      "attributes" : {
        "Province_State" : "Beijing", 
        "Confirmed" : 580, 
        "Recovered" : 418, 
        "Deaths" : 8, 
        "Long_" : 116.4142, 
        "Lat" : 40.1824, 
        "Country_Region" : "China", 
        "Province_State_Child" : null
      }
    }, 
    {
      "attributes" : {
        "Province_State" : "Bermuda", 
        "Confirmed" : 32, 
        "Recovered" : 10, 
        "Deaths" : 0, 
        "Long_" : -64.7505, 
        "Lat" : 32.3078, 
        "Country_Region" : "United Kingdom", 
        "Province_State_Child" : null
      }
    }, 
    {
      "attributes" : {
        "Province_State" : "British Columbia", 
        "Confirmed" : 1013, 
        "Recovered" : 0, 
        "Deaths" : 24, 
        "Long_" : -127.6476, 
        "Lat" : 53.7267, 
        "Country_Region" : "Canada", 
        "Province_State_Child" : null
      }
    }, 
    {
      "attributes" : {
        "Province_State" : "British Virgin Islands", 
        "Confirmed" : 3, 
        "Recovered" : 0, 
        "Deaths" : 0, 
        "Long_" : -64.64, 
        "Lat" : 18.4207, 
        "Country_Region" : "United Kingdom", 
        "Province_State_Child" : null
      }
    }, 
    {
      "attributes" : {
        "Province_State" : "Cayman Islands", 
        "Confirmed" : 14, 
        "Recovered" : 0, 
        "Deaths" : 1, 
        "Long_" : -81.2546, 
        "Lat" : 19.3133, 
        "Country_Region" : "United Kingdom", 
        "Province_State_Child" : null
      }
    }, 
    {
      "attributes" : {
        "Province_State" : "Channel Islands", 
        "Confirmed" : 172, 
        "Recovered" : 0, 
        "Deaths" : 3, 
        "Long_" : -2.3644, 
        "Lat" : 49.3723, 
        "Country_Region" : "United Kingdom", 
        "Province_State_Child" : null
      }
    }, 
    {
      "attributes" : {
        "Province_State" : "Chongqing", 
        "Confirmed" : 579, 
        "Recovered" : 570, 
        "Deaths" : 6, 
        "Long_" : 107.874, 
        "Lat" : 30.0572, 
        "Country_Region" : "China", 
        "Province_State_Child" : null
      }
    }, 
    {
      "attributes" : {
        "Province_State" : "Curacao", 
        "Confirmed" : 11, 
        "Recovered" : 3, 
        "Deaths" : 1, 
        "Long_" : -68.99, 
        "Lat" : 12.1696, 
        "Country_Region" : "Netherlands", 
        "Province_State_Child" : null
      }
    }, 
    {
      "attributes" : {
        "Province_State" : "Faroe Islands", 
        "Confirmed" : 173, 
        "Recovered" : 75, 
        "Deaths" : 0, 
        "Long_" : -6.9118, 
        "Lat" : 61.8926, 
        "Country_Region" : "Denmark", 
        "Province_State_Child" : null
      }
    }, 
    {
      "attributes" : {
        "Province_State" : "French Guiana", 
        "Confirmed" : 51, 
        "Recovered" : 15, 
        "Deaths" : 0, 
        "Long_" : -53, 
        "Lat" : 4, 
        "Country_Region" : "France", 
        "Province_State_Child" : null
      }
    }, 
    {
      "attributes" : {
        "Province_State" : "French Polynesia", 
        "Confirmed" : 37, 
        "Recovered" : 0, 
        "Deaths" : 0, 
        "Long_" : -149.4068, 
        "Lat" : -17.6797, 
        "Country_Region" : "France", 
        "Province_State_Child" : null
      }
    }, 
    {
      "attributes" : {
        "Province_State" : "Fujian", 
        "Confirmed" : 345, 
        "Recovered" : 298, 
        "Deaths" : 1, 
        "Long_" : 117.9874, 
        "Lat" : 26.0789, 
        "Country_Region" : "China", 
        "Province_State_Child" : null
      }
    }, 
    {
      "attributes" : {
        "Province_State" : "Gansu", 
        "Confirmed" : 138, 
        "Recovered" : 127, 
        "Deaths" : 2, 
        "Long_" : 101.0583, 
        "Lat" : 37.8099, 
        "Country_Region" : "China", 
        "Province_State_Child" : null
      }
    }, 
    {
      "attributes" : {
        "Province_State" : "Gibraltar", 
        "Confirmed" : 69, 
        "Recovered" : 34, 
        "Deaths" : 0, 
        "Long_" : -5.3536, 
        "Lat" : 36.1408, 
        "Country_Region" : "United Kingdom", 
        "Province_State_Child" : null
      }
    }, 
    {
      "attributes" : {
        "Province_State" : "Greenland", 
        "Confirmed" : 10, 
        "Recovered" : 2, 
        "Deaths" : 0, 
        "Long_" : -42.6043, 
        "Lat" : 71.7069, 
        "Country_Region" : "Denmark", 
        "Province_State_Child" : null
      }
    }, 
    {
      "attributes" : {
        "Province_State" : "Guadeloupe", 
        "Confirmed" : 114, 
        "Recovered" : 22, 
        "Deaths" : 4, 
        "Long_" : -61.551, 
        "Lat" : 16.265, 
        "Country_Region" : "France", 
        "Province_State_Child" : null
      }
    }, 
    {
      "attributes" : {
        "Province_State" : "Guangdong", 
        "Confirmed" : 1501, 
        "Recovered" : 1357, 
        "Deaths" : 8, 
        "Long_" : 113.4244, 
        "Lat" : 23.3417, 
        "Country_Region" : "China", 
        "Province_State_Child" : null
      }
    }, 
    {
      "attributes" : {
        "Province_State" : "Guangxi", 
        "Confirmed" : 254, 
        "Recovered" : 250, 
        "Deaths" : 2, 
        "Long_" : 108.7881, 
        "Lat" : 23.8298, 
        "Country_Region" : "China", 
        "Province_State_Child" : null
      }
    }, 
    {
      "attributes" : {
        "Province_State" : "Guizhou", 
        "Confirmed" : 146, 
        "Recovered" : 144, 
        "Deaths" : 2, 
        "Long_" : 106.8748, 
        "Lat" : 26.8154, 
        "Country_Region" : "China", 
        "Province_State_Child" : null
      }
    }, 
    {
      "attributes" : {
        "Province_State" : "Hainan", 
        "Confirmed" : 168, 
        "Recovered" : 168, 
        "Deaths" : 6, 
        "Long_" : 109.7453, 
        "Lat" : 19.1959, 
        "Country_Region" : "China", 
        "Province_State_Child" : null
      }
    }, 
    {
      "attributes" : {
        "Province_State" : "Hebei", 
        "Confirmed" : 323, 
        "Recovered" : 310, 
        "Deaths" : 6, 
        "Long_" : 116.1306, 
        "Lat" : 39.549, 
        "Country_Region" : "China", 
        "Province_State_Child" : null
      }
    }, 
    {
      "attributes" : {
        "Province_State" : "Heilongjiang", 
        "Confirmed" : 484, 
        "Recovered" : 469, 
        "Deaths" : 13, 
        "Long_" : 127.7615, 
        "Lat" : 47.862, 
        "Country_Region" : "China", 
        "Province_State_Child" : null
      }
    }, 
    {
      "attributes" : {
        "Province_State" : "Henan", 
        "Confirmed" : 1276, 
        "Recovered" : 1251, 
        "Deaths" : 22, 
        "Long_" : 113.614, 
        "Lat" : 33.882, 
        "Country_Region" : "China", 
        "Province_State_Child" : null
      }
    }, 
    {
      "attributes" : {
        "Province_State" : "Hong Kong", 
        "Confirmed" : 765, 
        "Recovered" : 147, 
        "Deaths" : 4, 
        "Long_" : 114.2, 
        "Lat" : 22.3, 
        "Country_Region" : "China", 
        "Province_State_Child" : null
      }
    }, 
    {
      "attributes" : {
        "Province_State" : "Hubei", 
        "Confirmed" : 67802, 
        "Recovered" : 63326, 
        "Deaths" : 3193, 
        "Long_" : 112.2707, 
        "Lat" : 30.9756, 
        "Country_Region" : "China", 
        "Province_State_Child" : null
      }
    }, 
    {
      "attributes" : {
        "Province_State" : "Hunan", 
        "Confirmed" : 1018, 
        "Recovered" : 1014, 
        "Deaths" : 4, 
        "Long_" : 111.7088, 
        "Lat" : 27.6104, 
        "Country_Region" : "China", 
        "Province_State_Child" : null
      }
    }, 
    {
      "attributes" : {
        "Province_State" : "Inner Mongolia", 
        "Confirmed" : 111, 
        "Recovered" : 74, 
        "Deaths" : 1, 
        "Long_" : 113.9448, 
        "Lat" : 44.0935, 
        "Country_Region" : "China", 
        "Province_State_Child" : null
      }
    }, 
    {
      "attributes" : {
        "Province_State" : "Isle of Man", 
        "Confirmed" : 65, 
        "Recovered" : 0, 
        "Deaths" : 0, 
        "Long_" : -4.5481, 
        "Lat" : 54.2361, 
        "Country_Region" : "United Kingdom", 
        "Province_State_Child" : null
      }
    }, 
    {
      "attributes" : {
        "Province_State" : "Jiangsu", 
        "Confirmed" : 646, 
        "Recovered" : 631, 
        "Deaths" : 0, 
        "Long_" : 119.455, 
        "Lat" : 32.9711, 
        "Country_Region" : "China", 
        "Province_State_Child" : null
      }
    }, 
    {
      "attributes" : {
        "Province_State" : "Jiangxi", 
        "Confirmed" : 937, 
        "Recovered" : 935, 
        "Deaths" : 1, 
        "Long_" : 115.7221, 
        "Lat" : 27.614, 
        "Country_Region" : "China", 
        "Province_State_Child" : null
      }
    }, 
    {
      "attributes" : {
        "Province_State" : "Jilin", 
        "Confirmed" : 98, 
        "Recovered" : 92, 
        "Deaths" : 1, 
        "Long_" : 126.1923, 
        "Lat" : 43.6661, 
        "Country_Region" : "China", 
        "Province_State_Child" : null
      }
    }, 
    {
      "attributes" : {
        "Province_State" : "Liaoning", 
        "Confirmed" : 140, 
        "Recovered" : 124, 
        "Deaths" : 2, 
        "Long_" : 122.6085, 
        "Lat" : 41.2956, 
        "Country_Region" : "China", 
        "Province_State_Child" : null
      }
    }, 
    {
      "attributes" : {
        "Province_State" : "Macau", 
        "Confirmed" : 41, 
        "Recovered" : 10, 
        "Deaths" : 0, 
        "Long_" : 113.55, 
        "Lat" : 22.1667, 
        "Country_Region" : "China", 
        "Province_State_Child" : null
      }
    }, 
    {
      "attributes" : {
        "Province_State" : "Manitoba", 
        "Confirmed" : 103, 
        "Recovered" : 0, 
        "Deaths" : 1, 
        "Long_" : -98.8139, 
        "Lat" : 53.7609, 
        "Country_Region" : "Canada", 
        "Province_State_Child" : null
      }
    }, 
    {
      "attributes" : {
        "Province_State" : "Martinique", 
        "Confirmed" : 128, 
        "Recovered" : 27, 
        "Deaths" : 3, 
        "Long_" : -61.0242, 
        "Lat" : 14.6415, 
        "Country_Region" : "France", 
        "Province_State_Child" : null
      }
    }, 
    {
      "attributes" : {
        "Province_State" : "Mayotte", 
        "Confirmed" : 94, 
        "Recovered" : 10, 
        "Deaths" : 1, 
        "Long_" : 45.166244, 
        "Lat" : -12.8275, 
        "Country_Region" : "France", 
        "Province_State_Child" : null
      }
    }, 
    {
      "attributes" : {
        "Province_State" : "Montserrat", 
        "Confirmed" : 5, 
        "Recovered" : 0, 
        "Deaths" : 0, 
        "Long_" : -62.187366, 
        "Lat" : 16.742498, 
        "Country_Region" : "United Kingdom", 
        "Province_State_Child" : null
      }
    }, 
    {
      "attributes" : {
        "Province_State" : "New Brunswick", 
        "Confirmed" : 70, 
        "Recovered" : 0, 
        "Deaths" : 0, 
        "Long_" : -66.4619, 
        "Lat" : 46.5653, 
        "Country_Region" : "Canada", 
        "Province_State_Child" : null
      }
    }, 
    {
      "attributes" : {
        "Province_State" : "New Caledonia", 
        "Confirmed" : 16, 
        "Recovered" : 0, 
        "Deaths" : 0, 
        "Long_" : 165.618042, 
        "Lat" : -20.904305, 
        "Country_Region" : "France", 
        "Province_State_Child" : null
      }
    }, 
    {
      "attributes" : {
        "Province_State" : "New South Wales", 
        "Confirmed" : 2182, 
        "Recovered" : 4, 
        "Deaths" : 9, 
        "Long_" : 151.2093, 
        "Lat" : -33.8688, 
        "Country_Region" : "Australia", 
        "Province_State_Child" : null
      }
    }, 
    {
      "attributes" : {
        "Province_State" : "Newfoundland and Labrador", 
        "Confirmed" : 152, 
        "Recovered" : 0, 
        "Deaths" : 1, 
        "Long_" : -57.6604, 
        "Lat" : 53.1355, 
        "Country_Region" : "Canada", 
        "Province_State_Child" : null
      }
    }, 
    {
      "attributes" : {
        "Province_State" : "Ningxia", 
        "Confirmed" : 75, 
        "Recovered" : 75, 
        "Deaths" : 0, 
        "Long_" : 106.1655, 
        "Lat" : 37.2692, 
        "Country_Region" : "China", 
        "Province_State_Child" : null
      }
    }, 
    {
      "attributes" : {
        "Province_State" : "Northern Territory", 
        "Confirmed" : 19, 
        "Recovered" : 0, 
        "Deaths" : 0, 
        "Long_" : 130.8456, 
        "Lat" : -12.4634, 
        "Country_Region" : "Australia", 
        "Province_State_Child" : null
      }
    }, 
    {
      "attributes" : {
        "Province_State" : "Northwest Territories", 
        "Confirmed" : 1, 
        "Recovered" : 0, 
        "Deaths" : 0, 
        "Long_" : -124.8457, 
        "Lat" : 64.8255, 
        "Country_Region" : "Canada", 
        "Province_State_Child" : null
      }
    }, 
    {
      "attributes" : {
        "Province_State" : "Nova Scotia", 
        "Confirmed" : 147, 
        "Recovered" : 0, 
        "Deaths" : 0, 
        "Long_" : -63.7443, 
        "Lat" : 44.682, 
        "Country_Region" : "Canada", 
        "Province_State_Child" : null
      }
    }, 
    {
      "attributes" : {
        "Province_State" : "Ontario", 
        "Confirmed" : 1966, 
        "Recovered" : 0, 
        "Deaths" : 33, 
        "Long_" : -85.3232, 
        "Lat" : 51.2538, 
        "Country_Region" : "Canada", 
        "Province_State_Child" : null
      }
    }, 
    {
      "attributes" : {
        "Province_State" : "Prince Edward Island", 
        "Confirmed" : 21, 
        "Recovered" : 0, 
        "Deaths" : 0, 
        "Long_" : -63.4168, 
        "Lat" : 46.5107, 
        "Country_Region" : "Canada", 
        "Province_State_Child" : null
      }
    }, 
    {
      "attributes" : {
        "Province_State" : "Qinghai", 
        "Confirmed" : 18, 
        "Recovered" : 18, 
        "Deaths" : 0, 
        "Long_" : 95.9956, 
        "Lat" : 35.7452, 
        "Country_Region" : "China", 
        "Province_State_Child" : null
      }
    }, 
    {
      "attributes" : {
        "Province_State" : "Quebec", 
        "Confirmed" : 4162, 
        "Recovered" : 0, 
        "Deaths" : 31, 
        "Long_" : -73.5491, 
        "Lat" : 52.9399, 
        "Country_Region" : "Canada", 
        "Province_State_Child" : null
      }
    }, 
    {
      "attributes" : {
        "Province_State" : "Queensland", 
        "Confirmed" : 781, 
        "Recovered" : 8, 
        "Deaths" : 2, 
        "Long_" : 153.0251, 
        "Lat" : -27.4698, 
        "Country_Region" : "Australia", 
        "Province_State_Child" : null
      }
    }, 
    {
      "attributes" : {
        "Province_State" : "Reunion", 
        "Confirmed" : 247, 
        "Recovered" : 1, 
        "Deaths" : 0, 
        "Long_" : 55.5364, 
        "Lat" : -21.1151, 
        "Country_Region" : "France", 
        "Province_State_Child" : null
      }
    }, 
    {
      "attributes" : {
        "Province_State" : "Saint Barthelemy", 
        "Confirmed" : 6, 
        "Recovered" : 1, 
        "Deaths" : 0, 
        "Long_" : -62.8333, 
        "Lat" : 17.9, 
        "Country_Region" : "France", 
        "Province_State_Child" : null
      }
    }, 
    {
      "attributes" : {
        "Province_State" : "Saskatchewan", 
        "Confirmed" : 184, 
        "Recovered" : 0, 
        "Deaths" : 2, 
        "Long_" : -106.4509, 
        "Lat" : 52.9399, 
        "Country_Region" : "Canada", 
        "Province_State_Child" : null
      }
    }, 
    {
      "attributes" : {
        "Province_State" : "Shaanxi", 
        "Confirmed" : 255, 
        "Recovered" : 242, 
        "Deaths" : 3, 
        "Long_" : 108.8701, 
        "Lat" : 35.1917, 
        "Country_Region" : "China", 
        "Province_State_Child" : null
      }
    }, 
    {
      "attributes" : {
        "Province_State" : "Shandong", 
        "Confirmed" : 774, 
        "Recovered" : 753, 
        "Deaths" : 7, 
        "Long_" : 118.1498, 
        "Lat" : 36.3427, 
        "Country_Region" : "China", 
        "Province_State_Child" : null
      }
    }, 
    {
      "attributes" : {
        "Province_State" : "Shanghai", 
        "Confirmed" : 516, 
        "Recovered" : 341, 
        "Deaths" : 6, 
        "Long_" : 121.4491, 
        "Lat" : 31.202, 
        "Country_Region" : "China", 
        "Province_State_Child" : null
      }
    }, 
    {
      "attributes" : {
        "Province_State" : "Shanxi", 
        "Confirmed" : 137, 
        "Recovered" : 133, 
        "Deaths" : 0, 
        "Long_" : 112.2922, 
        "Lat" : 37.5777, 
        "Country_Region" : "China", 
        "Province_State_Child" : null
      }
    }, 
    {
      "attributes" : {
        "Province_State" : "Sichuan", 
        "Confirmed" : 552, 
        "Recovered" : 537, 
        "Deaths" : 3, 
        "Long_" : 102.7103, 
        "Lat" : 30.6171, 
        "Country_Region" : "China", 
        "Province_State_Child" : null
      }
    }, 
    {
      "attributes" : {
        "Province_State" : "Sint Maarten", 
        "Confirmed" : 16, 
        "Recovered" : 6, 
        "Deaths" : 1, 
        "Long_" : -63.0548, 
        "Lat" : 18.0425, 
        "Country_Region" : "Netherlands", 
        "Province_State_Child" : null
      }
    }, 
    {
      "attributes" : {
        "Province_State" : "South Australia", 
        "Confirmed" : 367, 
        "Recovered" : 6, 
        "Deaths" : 0, 
        "Long_" : 138.6007, 
        "Lat" : -34.9285, 
        "Country_Region" : "Australia", 
        "Province_State_Child" : null
      }
    }, 
    {
      "attributes" : {
        "Province_State" : "St Martin", 
        "Confirmed" : 15, 
        "Recovered" : 2, 
        "Deaths" : 1, 
        "Long_" : -63.0501, 
        "Lat" : 18.0708, 
        "Country_Region" : "France", 
        "Province_State_Child" : null
      }
    }, 
    {
      "attributes" : {
        "Province_State" : "Tasmania", 
        "Confirmed" : 69, 
        "Recovered" : 5, 
        "Deaths" : 2, 
        "Long_" : 147.3272, 
        "Lat" : -42.8821, 
        "Country_Region" : "Australia", 
        "Province_State_Child" : null
      }
    }, 
    {
      "attributes" : {
        "Province_State" : "Tianjin", 
        "Confirmed" : 176, 
        "Recovered" : 135, 
        "Deaths" : 3, 
        "Long_" : 117.323, 
        "Lat" : 39.3054, 
        "Country_Region" : "China", 
        "Province_State_Child" : null
      }
    }, 
    {
      "attributes" : {
        "Province_State" : "Tibet", 
        "Confirmed" : 1, 
        "Recovered" : 1, 
        "Deaths" : 0, 
        "Long_" : 88.0924, 
        "Lat" : 31.6927, 
        "Country_Region" : "China", 
        "Province_State_Child" : null
      }
    }, 
    {
      "attributes" : {
        "Province_State" : "Turks and Caicos Islands", 
        "Confirmed" : 6, 
        "Recovered" : 0, 
        "Deaths" : 0, 
        "Long_" : -71.7979, 
        "Lat" : 21.694, 
        "Country_Region" : "United Kingdom", 
        "Province_State_Child" : null
      }
    }, 
    {
      "attributes" : {
        "Province_State" : "Victoria", 
        "Confirmed" : 968, 
        "Recovered" : 343, 
        "Deaths" : 4, 
        "Long_" : 144.9631, 
        "Lat" : -37.8136, 
        "Country_Region" : "Australia", 
        "Province_State_Child" : null
      }
    }, 
    {
      "attributes" : {
        "Province_State" : "Western Australia", 
        "Confirmed" : 392, 
        "Recovered" : 48, 
        "Deaths" : 2, 
        "Long_" : 115.8605, 
        "Lat" : -31.9505, 
        "Country_Region" : "Australia", 
        "Province_State_Child" : null
      }
    }, 
    {
      "attributes" : {
        "Province_State" : "Xinjiang", 
        "Confirmed" : 76, 
        "Recovered" : 73, 
        "Deaths" : 3, 
        "Long_" : 85.2401, 
        "Lat" : 41.1129, 
        "Country_Region" : "China", 
        "Province_State_Child" : null
      }
    }, 
    {
      "attributes" : {
        "Province_State" : "Yukon", 
        "Confirmed" : 5, 
        "Recovered" : 0, 
        "Deaths" : 0, 
        "Long_" : -135, 
        "Lat" : 64.2823, 
        "Country_Region" : "Canada", 
        "Province_State_Child" : null
      }
    }, 
    {
      "attributes" : {
        "Province_State" : "Yunnan", 
        "Confirmed" : 182, 
        "Recovered" : 172, 
        "Deaths" : 2, 
        "Long_" : 101.487, 
        "Lat" : 24.974, 
        "Country_Region" : "China", 
        "Province_State_Child" : null
      }
    }, 
    {
      "attributes" : {
        "Province_State" : "Zhejiang", 
        "Confirmed" : 1257, 
        "Recovered" : 1226, 
        "Deaths" : 1, 
        "Long_" : 120.0934, 
        "Lat" : 29.1832, 
        "Country_Region" : "China", 
        "Province_State_Child" : null
      }
    }, 
    {
      "attributes" : {
        "Province_State" : null, 
        "Confirmed" : 196, 
        "Recovered" : 5, 
        "Deaths" : 4, 
        "Long_" : 67.709953, 
        "Lat" : 33.93911, 
        "Country_Region" : "Afghanistan", 
        "Province_State_Child" : null
      }
    }, 
    {
      "attributes" : {
        "Province_State" : null, 
        "Confirmed" : 259, 
        "Recovered" : 67, 
        "Deaths" : 15, 
        "Long_" : 20.1683, 
        "Lat" : 41.1533, 
        "Country_Region" : "Albania", 
        "Province_State_Child" : null
      }
    }, 
    {
      "attributes" : {
        "Province_State" : null, 
        "Confirmed" : 716, 
        "Recovered" : 46, 
        "Deaths" : 44, 
        "Long_" : 1.6596, 
        "Lat" : 28.0339, 
        "Country_Region" : "Algeria", 
        "Province_State_Child" : null
      }
    }, 
    {
      "attributes" : {
        "Province_State" : null, 
        "Confirmed" : 390, 
        "Recovered" : 10, 
        "Deaths" : 14, 
        "Long_" : 1.5218, 
        "Lat" : 42.5063, 
        "Country_Region" : "Andorra", 
        "Province_State_Child" : null
      }
    }, 
    {
      "attributes" : {
        "Province_State" : null, 
        "Confirmed" : 7, 
        "Recovered" : 1, 
        "Deaths" : 2, 
        "Long_" : 17.8739, 
        "Lat" : -11.2027, 
        "Country_Region" : "Angola", 
        "Province_State_Child" : null
      }
    }, 
    {
      "attributes" : {
        "Province_State" : null, 
        "Confirmed" : 7, 
        "Recovered" : 0, 
        "Deaths" : 0, 
        "Long_" : -61.7964, 
        "Lat" : 17.0608, 
        "Country_Region" : "Antigua and Barbuda", 
        "Province_State_Child" : null
      }
    }, 
    {
      "attributes" : {
        "Province_State" : null, 
        "Confirmed" : 1054, 
        "Recovered" : 248, 
        "Deaths" : 27, 
        "Long_" : -63.6167, 
        "Lat" : -38.4161, 
        "Country_Region" : "Argentina", 
        "Province_State_Child" : null
      }
    }, 
    {
      "attributes" : {
        "Province_State" : null, 
        "Confirmed" : 571, 
        "Recovered" : 31, 
        "Deaths" : 3, 
        "Long_" : 45.0382, 
        "Lat" : 40.0691, 
        "Country_Region" : "Armenia", 
        "Province_State_Child" : null
      }
    }, 
    {
      "attributes" : {
        "Province_State" : null, 
        "Confirmed" : 10501, 
        "Recovered" : 1436, 
        "Deaths" : 146, 
        "Long_" : 14.5501, 
        "Lat" : 47.5162, 
        "Country_Region" : "Austria", 
        "Province_State_Child" : null
      }
    }, 
    {
      "attributes" : {
        "Province_State" : null, 
        "Confirmed" : 359, 
        "Recovered" : 26, 
        "Deaths" : 5, 
        "Long_" : 47.5769, 
        "Lat" : 40.1431, 
        "Country_Region" : "Azerbaijan", 
        "Province_State_Child" : null
      }
    }, 
    {
      "attributes" : {
        "Province_State" : null, 
        "Confirmed" : 15, 
        "Recovered" : 1, 
        "Deaths" : 0, 
        "Long_" : -78.035889, 
        "Lat" : 25.025885, 
        "Country_Region" : "Bahamas", 
        "Province_State_Child" : null
      }
    }, 
    {
      "attributes" : {
        "Province_State" : null, 
        "Confirmed" : 567, 
        "Recovered" : 316, 
        "Deaths" : 4, 
        "Long_" : 50.55, 
        "Lat" : 26.0275, 
        "Country_Region" : "Bahrain", 
        "Province_State_Child" : null
      }
    }, 
    {
      "attributes" : {
        "Province_State" : null, 
        "Confirmed" : 54, 
        "Recovered" : 25, 
        "Deaths" : 6, 
        "Long_" : 90.3563, 
        "Lat" : 23.685, 
        "Country_Region" : "Bangladesh", 
        "Province_State_Child" : null
      }
    }, 
    {
      "attributes" : {
        "Province_State" : null, 
        "Confirmed" : 34, 
        "Recovered" : 0, 
        "Deaths" : 0, 
        "Long_" : -59.5432, 
        "Lat" : 13.1939, 
        "Country_Region" : "Barbados", 
        "Province_State_Child" : null
      }
    }, 
    {
      "attributes" : {
        "Province_State" : null, 
        "Confirmed" : 163, 
        "Recovered" : 53, 
        "Deaths" : 2, 
        "Long_" : 27.9534, 
        "Lat" : 53.7098, 
        "Country_Region" : "Belarus", 
        "Province_State_Child" : null
      }
    }, 
    {
      "attributes" : {
        "Province_State" : null, 
        "Confirmed" : 13964, 
        "Recovered" : 2132, 
        "Deaths" : 828, 
        "Long_" : 4.469936, 
        "Lat" : 50.8333, 
        "Country_Region" : "Belgium", 
        "Province_State_Child" : null
      }
    }, 
    {
      "attributes" : {
        "Province_State" : null, 
        "Confirmed" : 3, 
        "Recovered" : 0, 
        "Deaths" : 0, 
        "Long_" : -88.4976, 
        "Lat" : 17.1899, 
        "Country_Region" : "Belize", 
        "Province_State_Child" : null
      }
    }, 
    {
      "attributes" : {
        "Province_State" : null, 
        "Confirmed" : 9, 
        "Recovered" : 1, 
        "Deaths" : 0, 
        "Long_" : 2.3158, 
        "Lat" : 9.3077, 
        "Country_Region" : "Benin", 
        "Province_State_Child" : null
      }
    }, 
    {
      "attributes" : {
        "Province_State" : null, 
        "Confirmed" : 4, 
        "Recovered" : 0, 
        "Deaths" : 0, 
        "Long_" : 90.4336, 
        "Lat" : 27.5142, 
        "Country_Region" : "Bhutan", 
        "Province_State_Child" : null
      }
    }, 
    {
      "attributes" : {
        "Province_State" : null, 
        "Confirmed" : 115, 
        "Recovered" : 1, 
        "Deaths" : 7, 
        "Long_" : -63.5887, 
        "Lat" : -16.2902, 
        "Country_Region" : "Bolivia", 
        "Province_State_Child" : null
      }
    }, 
    {
      "attributes" : {
        "Province_State" : null, 
        "Confirmed" : 455, 
        "Recovered" : 19, 
        "Deaths" : 13, 
        "Long_" : 17.6791, 
        "Lat" : 43.9159, 
        "Country_Region" : "Bosnia and Herzegovina", 
        "Province_State_Child" : null
      }
    }, 
    {
      "attributes" : {
        "Province_State" : null, 
        "Confirmed" : 4, 
        "Recovered" : 0, 
        "Deaths" : 1, 
        "Long_" : 24.6849, 
        "Lat" : -22.3285, 
        "Country_Region" : "Botswana", 
        "Province_State_Child" : null
      }
    }, 
    {
      "attributes" : {
        "Province_State" : null, 
        "Confirmed" : 5861, 
        "Recovered" : 127, 
        "Deaths" : 203, 
        "Long_" : -51.9253, 
        "Lat" : -14.235, 
        "Country_Region" : "Brazil", 
        "Province_State_Child" : null
      }
    }, 
    {
      "attributes" : {
        "Province_State" : null, 
        "Confirmed" : 131, 
        "Recovered" : 52, 
        "Deaths" : 1, 
        "Long_" : 114.7277, 
        "Lat" : 4.5353, 
        "Country_Region" : "Brunei", 
        "Province_State_Child" : null
      }
    }, 
    {
      "attributes" : {
        "Province_State" : null, 
        "Confirmed" : 422, 
        "Recovered" : 20, 
        "Deaths" : 9, 
        "Long_" : 25.4858, 
        "Lat" : 42.7339, 
        "Country_Region" : "Bulgaria", 
        "Province_State_Child" : null
      }
    }, 
    {
      "attributes" : {
        "Province_State" : null, 
        "Confirmed" : 261, 
        "Recovered" : 32, 
        "Deaths" : 14, 
        "Long_" : -1.5616, 
        "Lat" : 12.2383, 
        "Country_Region" : "Burkina Faso", 
        "Province_State_Child" : null
      }
    }, 
    {
      "attributes" : {
        "Province_State" : null, 
        "Confirmed" : 15, 
        "Recovered" : 0, 
        "Deaths" : 1, 
        "Long_" : 95.956, 
        "Lat" : 21.9162, 
        "Country_Region" : "Burma", 
        "Province_State_Child" : null
      }
    }, 
    {
      "attributes" : {
        "Province_State" : null, 
        "Confirmed" : 2, 
        "Recovered" : 0, 
        "Deaths" : 0, 
        "Long_" : 29.9189, 
        "Lat" : -3.3731, 
        "Country_Region" : "Burundi", 
        "Province_State_Child" : null
      }
    }, 
    {
      "attributes" : {
        "Province_State" : null, 
        "Confirmed" : 6, 
        "Recovered" : 0, 
        "Deaths" : 1, 
        "Long_" : -23.0418, 
        "Lat" : 16.5388, 
        "Country_Region" : "Cabo Verde", 
        "Province_State_Child" : null
      }
    }, 
    {
      "attributes" : {
        "Province_State" : null, 
        "Confirmed" : 109, 
        "Recovered" : 25, 
        "Deaths" : 0, 
        "Long_" : 104.9167, 
        "Lat" : 11.55, 
        "Country_Region" : "Cambodia", 
        "Province_State_Child" : null
      }
    }, 
    {
      "attributes" : {
        "Province_State" : null, 
        "Confirmed" : 233, 
        "Recovered" : 10, 
        "Deaths" : 6, 
        "Long_" : 11.5021, 
        "Lat" : 3.848, 
        "Country_Region" : "Cameroon", 
        "Province_State_Child" : null
      }
    }, 
    {
      "attributes" : {
        "Province_State" : null, 
        "Confirmed" : 3, 
        "Recovered" : 0, 
        "Deaths" : 0, 
        "Long_" : 20.9394, 
        "Lat" : 6.6111, 
        "Country_Region" : "Central African Republic", 
        "Province_State_Child" : null
      }
    }, 
    {
      "attributes" : {
        "Province_State" : null, 
        "Confirmed" : 7, 
        "Recovered" : 0, 
        "Deaths" : 0, 
        "Long_" : 18.7322, 
        "Lat" : 15.4542, 
        "Country_Region" : "Chad", 
        "Province_State_Child" : null
      }
    }, 
    {
      "attributes" : {
        "Province_State" : null, 
        "Confirmed" : 3031, 
        "Recovered" : 234, 
        "Deaths" : 16, 
        "Long_" : -71.543, 
        "Lat" : -35.6751, 
        "Country_Region" : "Chile", 
        "Province_State_Child" : null
      }
    }, 
    {
      "attributes" : {
        "Province_State" : null, 
        "Confirmed" : 906, 
        "Recovered" : 31, 
        "Deaths" : 16, 
        "Long_" : -74.2973, 
        "Lat" : 4.5709, 
        "Country_Region" : "Colombia", 
        "Province_State_Child" : null
      }
    }, 
    {
      "attributes" : {
        "Province_State" : null, 
        "Confirmed" : 19, 
        "Recovered" : 0, 
        "Deaths" : 0, 
        "Long_" : 15.2832, 
        "Lat" : -4.2634, 
        "Country_Region" : "Congo (Brazzaville)", 
        "Province_State_Child" : null
      }
    }, 
    {
      "attributes" : {
        "Province_State" : null, 
        "Confirmed" : 109, 
        "Recovered" : 3, 
        "Deaths" : 9, 
        "Long_" : 15.307045, 
        "Lat" : -4.322447, 
        "Country_Region" : "Congo (Kinshasa)", 
        "Province_State_Child" : null
      }
    }, 
    {
      "attributes" : {
        "Province_State" : null, 
        "Confirmed" : 347, 
        "Recovered" : 4, 
        "Deaths" : 2, 
        "Long_" : -83.7534, 
        "Lat" : 9.7489, 
        "Country_Region" : "Costa Rica", 
        "Province_State_Child" : null
      }
    }, 
    {
      "attributes" : {
        "Province_State" : null, 
        "Confirmed" : 179, 
        "Recovered" : 7, 
        "Deaths" : 1, 
        "Long_" : -5.5471, 
        "Lat" : 7.54, 
        "Country_Region" : "Cote d'Ivoire", 
        "Province_State_Child" : null
      }
    }, 
    {
      "attributes" : {
        "Province_State" : null, 
        "Confirmed" : 963, 
        "Recovered" : 73, 
        "Deaths" : 6, 
        "Long_" : 15.2, 
        "Lat" : 45.1, 
        "Country_Region" : "Croatia", 
        "Province_State_Child" : null
      }
    }, 
    {
      "attributes" : {
        "Province_State" : null, 
        "Confirmed" : 186, 
        "Recovered" : 8, 
        "Deaths" : 6, 
        "Long_" : -77.781167, 
        "Lat" : 21.521757, 
        "Country_Region" : "Cuba", 
        "Province_State_Child" : null
      }
    }, 
    {
      "attributes" : {
        "Province_State" : null, 
        "Confirmed" : 262, 
        "Recovered" : 23, 
        "Deaths" : 8, 
        "Long_" : 33.4299, 
        "Lat" : 35.1264, 
        "Country_Region" : "Cyprus", 
        "Province_State_Child" : null
      }
    }, 
    {
      "attributes" : {
        "Province_State" : null, 
        "Confirmed" : 3330, 
        "Recovered" : 45, 
        "Deaths" : 32, 
        "Long_" : 15.473, 
        "Lat" : 49.8175, 
        "Country_Region" : "Czechia", 
        "Province_State_Child" : null
      }
    }, 
    {
      "attributes" : {
        "Province_State" : null, 
        "Confirmed" : 3092, 
        "Recovered" : 1, 
        "Deaths" : 104, 
        "Long_" : 9.5018, 
        "Lat" : 56.2639, 
        "Country_Region" : "Denmark", 
        "Province_State_Child" : null
      }
    }, 
    {
      "attributes" : {
        "Province_State" : null, 
        "Confirmed" : 30, 
        "Recovered" : 0, 
        "Deaths" : 0, 
        "Long_" : 42.5903, 
        "Lat" : 11.8251, 
        "Country_Region" : "Djibouti", 
        "Province_State_Child" : null
      }
    }, 
    {
      "attributes" : {
        "Province_State" : null, 
        "Confirmed" : 12, 
        "Recovered" : 0, 
        "Deaths" : 0, 
        "Long_" : -61.371, 
        "Lat" : 15.415, 
        "Country_Region" : "Dominica", 
        "Province_State_Child" : null
      }
    }, 
    {
      "attributes" : {
        "Province_State" : null, 
        "Confirmed" : 1284, 
        "Recovered" : 9, 
        "Deaths" : 57, 
        "Long_" : -70.1627, 
        "Lat" : 18.7357, 
        "Country_Region" : "Dominican Republic", 
        "Province_State_Child" : null
      }
    }, 
    {
      "attributes" : {
        "Province_State" : null, 
        "Confirmed" : 2302, 
        "Recovered" : 58, 
        "Deaths" : 79, 
        "Long_" : -78.1834, 
        "Lat" : -1.8312, 
        "Country_Region" : "Ecuador", 
        "Province_State_Child" : null
      }
    }, 
    {
      "attributes" : {
        "Province_State" : null, 
        "Confirmed" : 710, 
        "Recovered" : 157, 
        "Deaths" : 46, 
        "Long_" : 30.802498, 
        "Lat" : 26.820553, 
        "Country_Region" : "Egypt", 
        "Province_State_Child" : null
      }
    }, 
    {
      "attributes" : {
        "Province_State" : null, 
        "Confirmed" : 32, 
        "Recovered" : 0, 
        "Deaths" : 1, 
        "Long_" : -88.8965, 
        "Lat" : 13.7942, 
        "Country_Region" : "El Salvador", 
        "Province_State_Child" : null
      }
    }, 
    {
      "attributes" : {
        "Province_State" : null, 
        "Confirmed" : 15, 
        "Recovered" : 1, 
        "Deaths" : 0, 
        "Long_" : 10.2679, 
        "Lat" : 1.6508, 
        "Country_Region" : "Equatorial Guinea", 
        "Province_State_Child" : null
      }
    }, 
    {
      "attributes" : {
        "Province_State" : null, 
        "Confirmed" : 15, 
        "Recovered" : 0, 
        "Deaths" : 0, 
        "Long_" : 39.7823, 
        "Lat" : 15.1794, 
        "Country_Region" : "Eritrea", 
        "Province_State_Child" : null
      }
    }, 
    {
      "attributes" : {
        "Province_State" : null, 
        "Confirmed" : 779, 
        "Recovered" : 33, 
        "Deaths" : 5, 
        "Long_" : 25.0136, 
        "Lat" : 58.5953, 
        "Country_Region" : "Estonia", 
        "Province_State_Child" : null
      }
    }, 
    {
      "attributes" : {
        "Province_State" : null, 
        "Confirmed" : 9, 
        "Recovered" : 0, 
        "Deaths" : 0, 
        "Long_" : 31.4659, 
        "Lat" : -26.5225, 
        "Country_Region" : "Eswatini", 
        "Province_State_Child" : null
      }
    }, 
    {
      "attributes" : {
        "Province_State" : null, 
        "Confirmed" : 29, 
        "Recovered" : 2, 
        "Deaths" : 0, 
        "Long_" : 40.4897, 
        "Lat" : 9.145, 
        "Country_Region" : "Ethiopia", 
        "Province_State_Child" : null
      }
    }, 
    {
      "attributes" : {
        "Province_State" : null, 
        "Confirmed" : 5, 
        "Recovered" : 0, 
        "Deaths" : 0, 
        "Long_" : 178.065, 
        "Lat" : -17.7134, 
        "Country_Region" : "Fiji", 
        "Province_State_Child" : null
      }
    }, 
    {
      "attributes" : {
        "Province_State" : null, 
        "Confirmed" : 1446, 
        "Recovered" : 10, 
        "Deaths" : 17, 
        "Long_" : 25.748151, 
        "Lat" : 61.92411, 
        "Country_Region" : "Finland", 
        "Province_State_Child" : null
      }
    }, 
    {
      "attributes" : {
        "Province_State" : null, 
        "Confirmed" : 52128, 
        "Recovered" : 9444, 
        "Deaths" : 3523, 
        "Long_" : 2.2137, 
        "Lat" : 46.2276, 
        "Country_Region" : "France", 
        "Province_State_Child" : null
      }
    }, 
    {
      "attributes" : {
        "Province_State" : null, 
        "Confirmed" : 18, 
        "Recovered" : 0, 
        "Deaths" : 1, 
        "Long_" : 11.6094, 
        "Lat" : -0.8037, 
        "Country_Region" : "Gabon", 
        "Province_State_Child" : null
      }
    }, 
    {
      "attributes" : {
        "Province_State" : null, 
        "Confirmed" : 4, 
        "Recovered" : 0, 
        "Deaths" : 1, 
        "Long_" : -15.3101, 
        "Lat" : 13.4432, 
        "Country_Region" : "Gambia", 
        "Province_State_Child" : null
      }
    }, 
    {
      "attributes" : {
        "Province_State" : null, 
        "Confirmed" : 115, 
        "Recovered" : 23, 
        "Deaths" : 0, 
        "Long_" : 43.3569, 
        "Lat" : 42.3154, 
        "Country_Region" : "Georgia", 
        "Province_State_Child" : null
      }
    }, 
    {
      "attributes" : {
        "Province_State" : null, 
        "Confirmed" : 74508, 
        "Recovered" : 16100, 
        "Deaths" : 821, 
        "Long_" : 10.451526, 
        "Lat" : 51.165691, 
        "Country_Region" : "Germany", 
        "Province_State_Child" : null
      }
    }, 
    {
      "attributes" : {
        "Province_State" : null, 
        "Confirmed" : 195, 
        "Recovered" : 31, 
        "Deaths" : 5, 
        "Long_" : -1.0232, 
        "Lat" : 7.9465, 
        "Country_Region" : "Ghana", 
        "Province_State_Child" : null
      }
    }, 
    {
      "attributes" : {
        "Province_State" : null, 
        "Confirmed" : 1314, 
        "Recovered" : 52, 
        "Deaths" : 49, 
        "Long_" : 21.8243, 
        "Lat" : 39.0742, 
        "Country_Region" : "Greece", 
        "Province_State_Child" : null
      }
    }, 
    {
      "attributes" : {
        "Province_State" : null, 
        "Confirmed" : 9, 
        "Recovered" : 0, 
        "Deaths" : 0, 
        "Long_" : -61.679, 
        "Lat" : 12.1165, 
        "Country_Region" : "Grenada", 
        "Province_State_Child" : null
      }
    }, 
    {
      "attributes" : {
        "Province_State" : null, 
        "Confirmed" : 39, 
        "Recovered" : 12, 
        "Deaths" : 1, 
        "Long_" : -90.2308, 
        "Lat" : 15.7835, 
        "Country_Region" : "Guatemala", 
        "Province_State_Child" : null
      }
    }, 
    {
      "attributes" : {
        "Province_State" : null, 
        "Confirmed" : 30, 
        "Recovered" : 0, 
        "Deaths" : 0, 
        "Long_" : -9.6966, 
        "Lat" : 9.9456, 
        "Country_Region" : "Guinea", 
        "Province_State_Child" : null
      }
    }, 
    {
      "attributes" : {
        "Province_State" : null, 
        "Confirmed" : 8, 
        "Recovered" : 0, 
        "Deaths" : 0, 
        "Long_" : -15.1804, 
        "Lat" : 11.8037, 
        "Country_Region" : "Guinea-Bissau", 
        "Province_State_Child" : null
      }
    }, 
    {
      "attributes" : {
        "Province_State" : null, 
        "Confirmed" : 12, 
        "Recovered" : 0, 
        "Deaths" : 2, 
        "Long_" : -58.93018, 
        "Lat" : 4.860416, 
        "Country_Region" : "Guyana", 
        "Province_State_Child" : null
      }
    }, 
    {
      "attributes" : {
        "Province_State" : null, 
        "Confirmed" : 16, 
        "Recovered" : 1, 
        "Deaths" : 0, 
        "Long_" : -72.2852, 
        "Lat" : 18.9712, 
        "Country_Region" : "Haiti", 
        "Province_State_Child" : null
      }
    }, 
    {
      "attributes" : {
        "Province_State" : null, 
        "Confirmed" : 6, 
        "Recovered" : 0, 
        "Deaths" : 0, 
        "Long_" : 12.4534, 
        "Lat" : 41.9029, 
        "Country_Region" : "Holy See", 
        "Province_State_Child" : null
      }
    }, 
    {
      "attributes" : {
        "Province_State" : null, 
        "Confirmed" : 172, 
        "Recovered" : 3, 
        "Deaths" : 10, 
        "Long_" : -86.2419, 
        "Lat" : 15.2, 
        "Country_Region" : "Honduras", 
        "Province_State_Child" : null
      }
    }, 
    {
      "attributes" : {
        "Province_State" : null, 
        "Confirmed" : 525, 
        "Recovered" : 40, 
        "Deaths" : 20, 
        "Long_" : 19.5033, 
        "Lat" : 47.1625, 
        "Country_Region" : "Hungary", 
        "Province_State_Child" : null
      }
    }, 
    {
      "attributes" : {
        "Province_State" : null, 
        "Confirmed" : 1220, 
        "Recovered" : 225, 
        "Deaths" : 2, 
        "Long_" : -19.0208, 
        "Lat" : 64.9631, 
        "Country_Region" : "Iceland", 
        "Province_State_Child" : null
      }
    }, 
    {
      "attributes" : {
        "Province_State" : null, 
        "Confirmed" : 1637, 
        "Recovered" : 148, 
        "Deaths" : 45, 
        "Long_" : 78.96288, 
        "Lat" : 20.593684, 
        "Country_Region" : "India", 
        "Province_State_Child" : null
      }
    }, 
    {
      "attributes" : {
        "Province_State" : null, 
        "Confirmed" : 1677, 
        "Recovered" : 103, 
        "Deaths" : 157, 
        "Long_" : 113.9213, 
        "Lat" : -0.7893, 
        "Country_Region" : "Indonesia", 
        "Province_State_Child" : null
      }
    }, 
    {
      "attributes" : {
        "Province_State" : null, 
        "Confirmed" : 47593, 
        "Recovered" : 15473, 
        "Deaths" : 3036, 
        "Long_" : 53.688046, 
        "Lat" : 32.427908, 
        "Country_Region" : "Iran", 
        "Province_State_Child" : null
      }
    }, 
    {
      "attributes" : {
        "Province_State" : null, 
        "Confirmed" : 694, 
        "Recovered" : 170, 
        "Deaths" : 50, 
        "Long_" : 43.679291, 
        "Lat" : 33.223191, 
        "Country_Region" : "Iraq", 
        "Province_State_Child" : null
      }
    }, 
    {
      "attributes" : {
        "Province_State" : null, 
        "Confirmed" : 3235, 
        "Recovered" : 5, 
        "Deaths" : 71, 
        "Long_" : -7.6921, 
        "Lat" : 53.1424, 
        "Country_Region" : "Ireland", 
        "Province_State_Child" : null
      }
    }, 
    {
      "attributes" : {
        "Province_State" : null, 
        "Confirmed" : 5591, 
        "Recovered" : 226, 
        "Deaths" : 23, 
        "Long_" : 34.851612, 
        "Lat" : 31.046051, 
        "Country_Region" : "Israel", 
        "Province_State_Child" : null
      }
    }, 
    {
      "attributes" : {
        "Province_State" : null, 
        "Confirmed" : 105792, 
        "Recovered" : 15729, 
        "Deaths" : 12428, 
        "Long_" : 12.56738, 
        "Lat" : 41.87194, 
        "Country_Region" : "Italy", 
        "Province_State_Child" : null
      }
    }, 
    {
      "attributes" : {
        "Province_State" : null, 
        "Confirmed" : 38, 
        "Recovered" : 2, 
        "Deaths" : 2, 
        "Long_" : -77.2975, 
        "Lat" : 18.1096, 
        "Country_Region" : "Jamaica", 
        "Province_State_Child" : null
      }
    }, 
    {
      "attributes" : {
        "Province_State" : null, 
        "Confirmed" : 2178, 
        "Recovered" : 472, 
        "Deaths" : 57, 
        "Long_" : 138.252924, 
        "Lat" : 36.204824, 
        "Country_Region" : "Japan", 
        "Province_State_Child" : null
      }
    }, 
    {
      "attributes" : {
        "Province_State" : null, 
        "Confirmed" : 274, 
        "Recovered" : 30, 
        "Deaths" : 5, 
        "Long_" : 36.51, 
        "Lat" : 31.24, 
        "Country_Region" : "Jordan", 
        "Province_State_Child" : null
      }
    }, 
    {
      "attributes" : {
        "Province_State" : null, 
        "Confirmed" : 375, 
        "Recovered" : 26, 
        "Deaths" : 3, 
        "Long_" : 66.9237, 
        "Lat" : 48.0196, 
        "Country_Region" : "Kazakhstan", 
        "Province_State_Child" : null
      }
    }, 
    {
      "attributes" : {
        "Province_State" : null, 
        "Confirmed" : 81, 
        "Recovered" : 3, 
        "Deaths" : 1, 
        "Long_" : 37.9062, 
        "Lat" : -0.0236, 
        "Country_Region" : "Kenya", 
        "Province_State_Child" : null
      }
    }, 
    {
      "attributes" : {
        "Province_State" : null, 
        "Confirmed" : 9887, 
        "Recovered" : 5567, 
        "Deaths" : 165, 
        "Long_" : 127.766922, 
        "Lat" : 35.907757, 
        "Country_Region" : "Korea, South", 
        "Province_State_Child" : null
      }
    }, 
    {
      "attributes" : {
        "Province_State" : null, 
        "Confirmed" : 112, 
        "Recovered" : 6, 
        "Deaths" : 1, 
        "Long_" : 20.902977, 
        "Lat" : 42.602636, 
        "Country_Region" : "Kosovo", 
        "Province_State_Child" : null
      }
    }, 
    {
      "attributes" : {
        "Province_State" : null, 
        "Confirmed" : 317, 
        "Recovered" : 80, 
        "Deaths" : 0, 
        "Long_" : 47.481766, 
        "Lat" : 29.31166, 
        "Country_Region" : "Kuwait", 
        "Province_State_Child" : null
      }
    }, 
    {
      "attributes" : {
        "Province_State" : null, 
        "Confirmed" : 111, 
        "Recovered" : 3, 
        "Deaths" : 0, 
        "Long_" : 74.766098, 
        "Lat" : 41.20438, 
        "Country_Region" : "Kyrgyzstan", 
        "Province_State_Child" : null
      }
    }, 
    {
      "attributes" : {
        "Province_State" : null, 
        "Confirmed" : 10, 
        "Recovered" : 0, 
        "Deaths" : 0, 
        "Long_" : 102.495496, 
        "Lat" : 19.85627, 
        "Country_Region" : "Laos", 
        "Province_State_Child" : null
      }
    }, 
    {
      "attributes" : {
        "Province_State" : null, 
        "Confirmed" : 446, 
        "Recovered" : 1, 
        "Deaths" : 0, 
        "Long_" : 24.6032, 
        "Lat" : 56.8796, 
        "Country_Region" : "Latvia", 
        "Province_State_Child" : null
      }
    }, 
    {
      "attributes" : {
        "Province_State" : null, 
        "Confirmed" : 479, 
        "Recovered" : 37, 
        "Deaths" : 12, 
        "Long_" : 35.8623, 
        "Lat" : 33.8547, 
        "Country_Region" : "Lebanon", 
        "Province_State_Child" : null
      }
    }, 
    {
      "attributes" : {
        "Province_State" : null, 
        "Confirmed" : 6, 
        "Recovered" : 0, 
        "Deaths" : 0, 
        "Long_" : -9.429499, 
        "Lat" : 6.428055, 
        "Country_Region" : "Liberia", 
        "Province_State_Child" : null
      }
    }, 
    {
      "attributes" : {
        "Province_State" : null, 
        "Confirmed" : 10, 
        "Recovered" : 1, 
        "Deaths" : 0, 
        "Long_" : 17.228331, 
        "Lat" : 26.3351, 
        "Country_Region" : "Libya", 
        "Province_State_Child" : null
      }
    }, 
    {
      "attributes" : {
        "Province_State" : null, 
        "Confirmed" : 68, 
        "Recovered" : 0, 
        "Deaths" : 0, 
        "Long_" : 9.55, 
        "Lat" : 47.14, 
        "Country_Region" : "Liechtenstein", 
        "Province_State_Child" : null
      }
    }, 
    {
      "attributes" : {
        "Province_State" : null, 
        "Confirmed" : 581, 
        "Recovered" : 7, 
        "Deaths" : 8, 
        "Long_" : 23.8813, 
        "Lat" : 55.1694, 
        "Country_Region" : "Lithuania", 
        "Province_State_Child" : null
      }
    }, 
    {
      "attributes" : {
        "Province_State" : null, 
        "Confirmed" : 2178, 
        "Recovered" : 80, 
        "Deaths" : 23, 
        "Long_" : 6.1296, 
        "Lat" : 49.8153, 
        "Country_Region" : "Luxembourg", 
        "Province_State_Child" : null
      }
    }, 
    {
      "attributes" : {
        "Province_State" : null, 
        "Confirmed" : 57, 
        "Recovered" : 0, 
        "Deaths" : 0, 
        "Long_" : 46.869107, 
        "Lat" : -18.766947, 
        "Country_Region" : "Madagascar", 
        "Province_State_Child" : null
      }
    }, 
    {
      "attributes" : {
        "Province_State" : null, 
        "Confirmed" : 2908, 
        "Recovered" : 645, 
        "Deaths" : 45, 
        "Long_" : 101.975766, 
        "Lat" : 4.210484, 
        "Country_Region" : "Malaysia", 
        "Province_State_Child" : null
      }
    }, 
    {
      "attributes" : {
        "Province_State" : null, 
        "Confirmed" : 19, 
        "Recovered" : 13, 
        "Deaths" : 0, 
        "Long_" : 73.2207, 
        "Lat" : 3.2028, 
        "Country_Region" : "Maldives", 
        "Province_State_Child" : null
      }
    }, 
    {
      "attributes" : {
        "Province_State" : null, 
        "Confirmed" : 31, 
        "Recovered" : 0, 
        "Deaths" : 3, 
        "Long_" : -3.996166, 
        "Lat" : 17.570692, 
        "Country_Region" : "Mali", 
        "Province_State_Child" : null
      }
    }, 
    {
      "attributes" : {
        "Province_State" : null, 
        "Confirmed" : 188, 
        "Recovered" : 2, 
        "Deaths" : 0, 
        "Long_" : 14.3754, 
        "Lat" : 35.9375, 
        "Country_Region" : "Malta", 
        "Province_State_Child" : null
      }
    }, 
    {
      "attributes" : {
        "Province_State" : null, 
        "Confirmed" : 6, 
        "Recovered" : 2, 
        "Deaths" : 1, 
        "Long_" : -10.9408, 
        "Lat" : 21.0079, 
        "Country_Region" : "Mauritania", 
        "Province_State_Child" : null
      }
    }, 
    {
      "attributes" : {
        "Province_State" : null, 
        "Confirmed" : 154, 
        "Recovered" : 0, 
        "Deaths" : 5, 
        "Long_" : 57.552152, 
        "Lat" : -20.348404, 
        "Country_Region" : "Mauritius", 
        "Province_State_Child" : null
      }
    }, 
    {
      "attributes" : {
        "Province_State" : null, 
        "Confirmed" : 1215, 
        "Recovered" : 35, 
        "Deaths" : 29, 
        "Long_" : -102.5528, 
        "Lat" : 23.6345, 
        "Country_Region" : "Mexico", 
        "Province_State_Child" : null
      }
    }, 
    {
      "attributes" : {
        "Province_State" : null, 
        "Confirmed" : 353, 
        "Recovered" : 22, 
        "Deaths" : 4, 
        "Long_" : 28.3699, 
        "Lat" : 47.4116, 
        "Country_Region" : "Moldova", 
        "Province_State_Child" : null
      }
    }, 
    {
      "attributes" : {
        "Province_State" : null, 
        "Confirmed" : 52, 
        "Recovered" : 2, 
        "Deaths" : 1, 
        "Long_" : 7.4167, 
        "Lat" : 43.7333, 
        "Country_Region" : "Monaco", 
        "Province_State_Child" : null
      }
    }, 
    {
      "attributes" : {
        "Province_State" : null, 
        "Confirmed" : 14, 
        "Recovered" : 2, 
        "Deaths" : 0, 
        "Long_" : 103.8467, 
        "Lat" : 46.8625, 
        "Country_Region" : "Mongolia", 
        "Province_State_Child" : null
      }
    }, 
    {
      "attributes" : {
        "Province_State" : null, 
        "Confirmed" : 120, 
        "Recovered" : 0, 
        "Deaths" : 2, 
        "Long_" : 19.37439, 
        "Lat" : 42.708678, 
        "Country_Region" : "Montenegro", 
        "Province_State_Child" : null
      }
    }, 
    {
      "attributes" : {
        "Province_State" : null, 
        "Confirmed" : 638, 
        "Recovered" : 26, 
        "Deaths" : 37, 
        "Long_" : -7.0926, 
        "Lat" : 31.7917, 
        "Country_Region" : "Morocco", 
        "Province_State_Child" : null
      }
    }, 
    {
      "attributes" : {
        "Province_State" : null, 
        "Confirmed" : 8, 
        "Recovered" : 0, 
        "Deaths" : 0, 
        "Long_" : 35.529562, 
        "Lat" : -18.665695, 
        "Country_Region" : "Mozambique", 
        "Province_State_Child" : null
      }
    }, 
    {
      "attributes" : {
        "Province_State" : null, 
        "Confirmed" : 14, 
        "Recovered" : 2, 
        "Deaths" : 0, 
        "Long_" : 18.4904, 
        "Lat" : -22.9576, 
        "Country_Region" : "Namibia", 
        "Province_State_Child" : null
      }
    }, 
    {
      "attributes" : {
        "Province_State" : null, 
        "Confirmed" : 5, 
        "Recovered" : 1, 
        "Deaths" : 0, 
        "Long_" : 84.25, 
        "Lat" : 28.1667, 
        "Country_Region" : "Nepal", 
        "Province_State_Child" : null
      }
    }, 
    {
      "attributes" : {
        "Province_State" : null, 
        "Confirmed" : 13614, 
        "Recovered" : 250, 
        "Deaths" : 1173, 
        "Long_" : 5.2913, 
        "Lat" : 52.1326, 
        "Country_Region" : "Netherlands", 
        "Province_State_Child" : null
      }
    }, 
    {
      "attributes" : {
        "Province_State" : null, 
        "Confirmed" : 708, 
        "Recovered" : 83, 
        "Deaths" : 1, 
        "Long_" : 174.886, 
        "Lat" : -40.9006, 
        "Country_Region" : "New Zealand", 
        "Province_State_Child" : null
      }
    }, 
    {
      "attributes" : {
        "Province_State" : null, 
        "Confirmed" : 5, 
        "Recovered" : 0, 
        "Deaths" : 1, 
        "Long_" : -85.207229, 
        "Lat" : 12.865416, 
        "Country_Region" : "Nicaragua", 
        "Province_State_Child" : null
      }
    }, 
    {
      "attributes" : {
        "Province_State" : null, 
        "Confirmed" : 34, 
        "Recovered" : 0, 
        "Deaths" : 3, 
        "Long_" : 8.081666, 
        "Lat" : 17.607789, 
        "Country_Region" : "Niger", 
        "Province_State_Child" : null
      }
    }, 
    {
      "attributes" : {
        "Province_State" : null, 
        "Confirmed" : 151, 
        "Recovered" : 9, 
        "Deaths" : 2, 
        "Long_" : 8.6753, 
        "Lat" : 9.082, 
        "Country_Region" : "Nigeria", 
        "Province_State_Child" : null
      }
    }, 
    {
      "attributes" : {
        "Province_State" : null, 
        "Confirmed" : 354, 
        "Recovered" : 12, 
        "Deaths" : 9, 
        "Long_" : 21.7453, 
        "Lat" : 41.6086, 
        "Country_Region" : "North Macedonia", 
        "Province_State_Child" : null
      }
    }, 
    {
      "attributes" : {
        "Province_State" : null, 
        "Confirmed" : 4828, 
        "Recovered" : 13, 
        "Deaths" : 43, 
        "Long_" : 8.4689, 
        "Lat" : 60.472, 
        "Country_Region" : "Norway", 
        "Province_State_Child" : null
      }
    }, 
    {
      "attributes" : {
        "Province_State" : null, 
        "Confirmed" : 210, 
        "Recovered" : 34, 
        "Deaths" : 1, 
        "Long_" : 55.923255, 
        "Lat" : 21.512583, 
        "Country_Region" : "Oman", 
        "Province_State_Child" : null
      }
    }, 
    {
      "attributes" : {
        "Province_State" : null, 
        "Confirmed" : 2071, 
        "Recovered" : 82, 
        "Deaths" : 26, 
        "Long_" : 69.3451, 
        "Lat" : 30.3753, 
        "Country_Region" : "Pakistan", 
        "Province_State_Child" : null
      }
    }, 
    {
      "attributes" : {
        "Province_State" : null, 
        "Confirmed" : 1181, 
        "Recovered" : 9, 
        "Deaths" : 30, 
        "Long_" : -80.7821, 
        "Lat" : 8.538, 
        "Country_Region" : "Panama", 
        "Province_State_Child" : null
      }
    }, 
    {
      "attributes" : {
        "Province_State" : null, 
        "Confirmed" : 1, 
        "Recovered" : 0, 
        "Deaths" : 0, 
        "Long_" : 143.95555, 
        "Lat" : -6.314993, 
        "Country_Region" : "Papua New Guinea", 
        "Province_State_Child" : null
      }
    }, 
    {
      "attributes" : {
        "Province_State" : null, 
        "Confirmed" : 69, 
        "Recovered" : 1, 
        "Deaths" : 3, 
        "Long_" : -58.4438, 
        "Lat" : -23.4425, 
        "Country_Region" : "Paraguay", 
        "Province_State_Child" : null
      }
    }, 
    {
      "attributes" : {
        "Province_State" : null, 
        "Confirmed" : 1065, 
        "Recovered" : 394, 
        "Deaths" : 30, 
        "Long_" : -75.0152, 
        "Lat" : -9.19, 
        "Country_Region" : "Peru", 
        "Province_State_Child" : null
      }
    }, 
    {
      "attributes" : {
        "Province_State" : null, 
        "Confirmed" : 2311, 
        "Recovered" : 50, 
        "Deaths" : 96, 
        "Long_" : 121.774017, 
        "Lat" : 12.879721, 
        "Country_Region" : "Philippines", 
        "Province_State_Child" : null
      }
    }, 
    {
      "attributes" : {
        "Province_State" : null, 
        "Confirmed" : 2420, 
        "Recovered" : 7, 
        "Deaths" : 36, 
        "Long_" : 19.1451, 
        "Lat" : 51.9194, 
        "Country_Region" : "Poland", 
        "Province_State_Child" : null
      }
    }, 
    {
      "attributes" : {
        "Province_State" : null, 
        "Confirmed" : 8251, 
        "Recovered" : 43, 
        "Deaths" : 187, 
        "Long_" : -8.2245, 
        "Lat" : 39.3999, 
        "Country_Region" : "Portugal", 
        "Province_State_Child" : null
      }
    }, 
    {
      "attributes" : {
        "Province_State" : null, 
        "Confirmed" : 781, 
        "Recovered" : 62, 
        "Deaths" : 2, 
        "Long_" : 51.1839, 
        "Lat" : 25.3548, 
        "Country_Region" : "Qatar", 
        "Province_State_Child" : null
      }
    }, 
    {
      "attributes" : {
        "Province_State" : null, 
        "Confirmed" : 2460, 
        "Recovered" : 252, 
        "Deaths" : 86, 
        "Long_" : 24.9668, 
        "Lat" : 45.9432, 
        "Country_Region" : "Romania", 
        "Province_State_Child" : null
      }
    }, 
    {
      "attributes" : {
        "Province_State" : null, 
        "Confirmed" : 2777, 
        "Recovered" : 190, 
        "Deaths" : 24, 
        "Long_" : 105.318756, 
        "Lat" : 61.52401, 
        "Country_Region" : "Russia", 
        "Province_State_Child" : null
      }
    }, 
    {
      "attributes" : {
        "Province_State" : null, 
        "Confirmed" : 75, 
        "Recovered" : 0, 
        "Deaths" : 0, 
        "Long_" : 29.8739, 
        "Lat" : -1.9403, 
        "Country_Region" : "Rwanda", 
        "Province_State_Child" : null
      }
    }, 
    {
      "attributes" : {
        "Province_State" : null, 
        "Confirmed" : 8, 
        "Recovered" : 0, 
        "Deaths" : 0, 
        "Long_" : -62.782998, 
        "Lat" : 17.357822, 
        "Country_Region" : "Saint Kitts and Nevis", 
        "Province_State_Child" : null
      }
    }, 
    {
      "attributes" : {
        "Province_State" : null, 
        "Confirmed" : 13, 
        "Recovered" : 1, 
        "Deaths" : 0, 
        "Long_" : -60.9789, 
        "Lat" : 13.9094, 
        "Country_Region" : "Saint Lucia", 
        "Province_State_Child" : null
      }
    }, 
    {
      "attributes" : {
        "Province_State" : null, 
        "Confirmed" : 1, 
        "Recovered" : 1, 
        "Deaths" : 0, 
        "Long_" : -61.2872, 
        "Lat" : 12.9843, 
        "Country_Region" : "Saint Vincent and the Grenadines", 
        "Province_State_Child" : null
      }
    }, 
    {
      "attributes" : {
        "Province_State" : null, 
        "Confirmed" : 236, 
        "Recovered" : 13, 
        "Deaths" : 26, 
        "Long_" : 12.4578, 
        "Lat" : 43.9424, 
        "Country_Region" : "San Marino", 
        "Province_State_Child" : null
      }
    }, 
    {
      "attributes" : {
        "Province_State" : null, 
        "Confirmed" : 1720, 
        "Recovered" : 264, 
        "Deaths" : 16, 
        "Long_" : 45.079162, 
        "Lat" : 23.885942, 
        "Country_Region" : "Saudi Arabia", 
        "Province_State_Child" : null
      }
    }, 
    {
      "attributes" : {
        "Province_State" : null, 
        "Confirmed" : 190, 
        "Recovered" : 45, 
        "Deaths" : 1, 
        "Long_" : -14.4524, 
        "Lat" : 14.4974, 
        "Country_Region" : "Senegal", 
        "Province_State_Child" : null
      }
    }, 
    {
      "attributes" : {
        "Province_State" : null, 
        "Confirmed" : 1060, 
        "Recovered" : 0, 
        "Deaths" : 28, 
        "Long_" : 21.0059, 
        "Lat" : 44.0165, 
        "Country_Region" : "Serbia", 
        "Province_State_Child" : null
      }
    }, 
    {
      "attributes" : {
        "Province_State" : null, 
        "Confirmed" : 10, 
        "Recovered" : 0, 
        "Deaths" : 0, 
        "Long_" : 55.492, 
        "Lat" : -4.6796, 
        "Country_Region" : "Seychelles", 
        "Province_State_Child" : null
      }
    }, 
    {
      "attributes" : {
        "Province_State" : null, 
        "Confirmed" : 1, 
        "Recovered" : 0, 
        "Deaths" : 0, 
        "Long_" : -11.779889, 
        "Lat" : 8.460555, 
        "Country_Region" : "Sierra Leone", 
        "Province_State_Child" : null
      }
    }, 
    {
      "attributes" : {
        "Province_State" : null, 
        "Confirmed" : 1000, 
        "Recovered" : 245, 
        "Deaths" : 3, 
        "Long_" : 103.8333, 
        "Lat" : 1.2833, 
        "Country_Region" : "Singapore", 
        "Province_State_Child" : null
      }
    }, 
    {
      "attributes" : {
        "Province_State" : null, 
        "Confirmed" : 400, 
        "Recovered" : 3, 
        "Deaths" : 1, 
        "Long_" : 19.699, 
        "Lat" : 48.669, 
        "Country_Region" : "Slovakia", 
        "Province_State_Child" : null
      }
    }, 
    {
      "attributes" : {
        "Province_State" : null, 
        "Confirmed" : 841, 
        "Recovered" : 10, 
        "Deaths" : 15, 
        "Long_" : 14.9955, 
        "Lat" : 46.1512, 
        "Country_Region" : "Slovenia", 
        "Province_State_Child" : null
      }
    }, 
    {
      "attributes" : {
        "Province_State" : null, 
        "Confirmed" : 5, 
        "Recovered" : 1, 
        "Deaths" : 0, 
        "Long_" : 46.199616, 
        "Lat" : 5.152149, 
        "Country_Region" : "Somalia", 
        "Province_State_Child" : null
      }
    }, 
    {
      "attributes" : {
        "Province_State" : null, 
        "Confirmed" : 1353, 
        "Recovered" : 50, 
        "Deaths" : 5, 
        "Long_" : 22.9375, 
        "Lat" : -30.5595, 
        "Country_Region" : "South Africa", 
        "Province_State_Child" : null
      }
    }, 
    {
      "attributes" : {
        "Province_State" : null, 
        "Confirmed" : 102136, 
        "Recovered" : 22647, 
        "Deaths" : 9053, 
        "Long_" : -3.74922, 
        "Lat" : 40.463667, 
        "Country_Region" : "Spain", 
        "Province_State_Child" : null
      }
    }, 
    {
      "attributes" : {
        "Province_State" : null, 
        "Confirmed" : 146, 
        "Recovered" : 21, 
        "Deaths" : 2, 
        "Long_" : 80.771797, 
        "Lat" : 7.873054, 
        "Country_Region" : "Sri Lanka", 
        "Province_State_Child" : null
      }
    }, 
    {
      "attributes" : {
        "Province_State" : null, 
        "Confirmed" : 7, 
        "Recovered" : 1, 
        "Deaths" : 2, 
        "Long_" : 30.2176, 
        "Lat" : 12.8628, 
        "Country_Region" : "Sudan", 
        "Province_State_Child" : null
      }
    }, 
    {
      "attributes" : {
        "Province_State" : null, 
        "Confirmed" : 10, 
        "Recovered" : 0, 
        "Deaths" : 0, 
        "Long_" : -56.0278, 
        "Lat" : 3.9193, 
        "Country_Region" : "Suriname", 
        "Province_State_Child" : null
      }
    }, 
    {
      "attributes" : {
        "Province_State" : null, 
        "Confirmed" : 4947, 
        "Recovered" : 16, 
        "Deaths" : 239, 
        "Long_" : 18.643501, 
        "Lat" : 60.128161, 
        "Country_Region" : "Sweden", 
        "Province_State_Child" : null
      }
    }, 
    {
      "attributes" : {
        "Province_State" : null, 
        "Confirmed" : 17137, 
        "Recovered" : 2967, 
        "Deaths" : 461, 
        "Long_" : 8.2275, 
        "Lat" : 46.8182, 
        "Country_Region" : "Switzerland", 
        "Province_State_Child" : null
      }
    }, 
    {
      "attributes" : {
        "Province_State" : null, 
        "Confirmed" : 10, 
        "Recovered" : 0, 
        "Deaths" : 2, 
        "Long_" : 38.996815, 
        "Lat" : 34.802075, 
        "Country_Region" : "Syria", 
        "Province_State_Child" : null
      }
    }, 
    {
      "attributes" : {
        "Province_State" : null, 
        "Confirmed" : 329, 
        "Recovered" : 39, 
        "Deaths" : 5, 
        "Long_" : 121, 
        "Lat" : 23.7, 
        "Country_Region" : "Taiwan*", 
        "Province_State_Child" : null
      }
    }, 
    {
      "attributes" : {
        "Province_State" : null, 
        "Confirmed" : 20, 
        "Recovered" : 1, 
        "Deaths" : 1, 
        "Long_" : 34.888822, 
        "Lat" : -6.369028, 
        "Country_Region" : "Tanzania", 
        "Province_State_Child" : null
      }
    }, 
    {
      "attributes" : {
        "Province_State" : null, 
        "Confirmed" : 1771, 
        "Recovered" : 416, 
        "Deaths" : 12, 
        "Long_" : 100.992541, 
        "Lat" : 15.870032, 
        "Country_Region" : "Thailand", 
        "Province_State_Child" : null
      }
    }, 
    {
      "attributes" : {
        "Province_State" : null, 
        "Confirmed" : 1, 
        "Recovered" : 0, 
        "Deaths" : 0, 
        "Long_" : 125.727539, 
        "Lat" : -8.874217, 
        "Country_Region" : "Timor-Leste", 
        "Province_State_Child" : null
      }
    }, 
    {
      "attributes" : {
        "Province_State" : null, 
        "Confirmed" : 36, 
        "Recovered" : 10, 
        "Deaths" : 2, 
        "Long_" : 0.8248, 
        "Lat" : 8.6195, 
        "Country_Region" : "Togo", 
        "Province_State_Child" : null
      }
    }, 
    {
      "attributes" : {
        "Province_State" : null, 
        "Confirmed" : 89, 
        "Recovered" : 1, 
        "Deaths" : 5, 
        "Long_" : -61.2225, 
        "Lat" : 10.6918, 
        "Country_Region" : "Trinidad and Tobago", 
        "Province_State_Child" : null
      }
    }, 
    {
      "attributes" : {
        "Province_State" : null, 
        "Confirmed" : 394, 
        "Recovered" : 3, 
        "Deaths" : 10, 
        "Long_" : 9.537499, 
        "Lat" : 33.886917, 
        "Country_Region" : "Tunisia", 
        "Province_State_Child" : null
      }
    }, 
    {
      "attributes" : {
        "Province_State" : null, 
        "Confirmed" : 13531, 
        "Recovered" : 243, 
        "Deaths" : 214, 
        "Long_" : 35.2433, 
        "Lat" : 38.9637, 
        "Country_Region" : "Turkey", 
        "Province_State_Child" : null
      }
    }, 
    {
      "attributes" : {
        "Province_State" : null, 
        "Confirmed" : 44, 
        "Recovered" : 0, 
        "Deaths" : 0, 
        "Long_" : 32.290275, 
        "Lat" : 1.373333, 
        "Country_Region" : "Uganda", 
        "Province_State_Child" : null
      }
    }, 
    {
      "attributes" : {
        "Province_State" : null, 
        "Confirmed" : 669, 
        "Recovered" : 10, 
        "Deaths" : 17, 
        "Long_" : 31.1656, 
        "Lat" : 48.3794, 
        "Country_Region" : "Ukraine", 
        "Province_State_Child" : null
      }
    }, 
    {
      "attributes" : {
        "Province_State" : null, 
        "Confirmed" : 664, 
        "Recovered" : 61, 
        "Deaths" : 6, 
        "Long_" : 53.847818, 
        "Lat" : 23.424076, 
        "Country_Region" : "United Arab Emirates", 
        "Province_State_Child" : null
      }
    }, 
    {
      "attributes" : {
        "Province_State" : null, 
        "Confirmed" : 29474, 
        "Recovered" : 135, 
        "Deaths" : 2352, 
        "Long_" : -3.436, 
        "Lat" : 55.3781, 
        "Country_Region" : "United Kingdom", 
        "Province_State_Child" : null
      }
    }, 
    {
      "attributes" : {
        "Province_State" : null, 
        "Confirmed" : 338, 
        "Recovered" : 41, 
        "Deaths" : 2, 
        "Long_" : -55.7658, 
        "Lat" : -32.5228, 
        "Country_Region" : "Uruguay", 
        "Province_State_Child" : null
      }
    }, 
    {
      "attributes" : {
        "Province_State" : null, 
        "Confirmed" : 173, 
        "Recovered" : 12, 
        "Deaths" : 2, 
        "Long_" : 64.585262, 
        "Lat" : 41.377491, 
        "Country_Region" : "Uzbekistan", 
        "Province_State_Child" : null
      }
    }, 
    {
      "attributes" : {
        "Province_State" : null, 
        "Confirmed" : 143, 
        "Recovered" : 41, 
        "Deaths" : 3, 
        "Long_" : -66.5897, 
        "Lat" : 6.4238, 
        "Country_Region" : "Venezuela", 
        "Province_State_Child" : null
      }
    }, 
    {
      "attributes" : {
        "Province_State" : null, 
        "Confirmed" : 218, 
        "Recovered" : 63, 
        "Deaths" : 0, 
        "Long_" : 108.277199, 
        "Lat" : 14.058324, 
        "Country_Region" : "Vietnam", 
        "Province_State_Child" : null
      }
    }, 
    {
      "attributes" : {
        "Province_State" : null, 
        "Confirmed" : 134, 
        "Recovered" : 18, 
        "Deaths" : 1, 
        "Long_" : 35.2332, 
        "Lat" : 31.9522, 
        "Country_Region" : "West Bank and Gaza", 
        "Province_State_Child" : null
      }
    }, 
    {
      "attributes" : {
        "Province_State" : null, 
        "Confirmed" : 36, 
        "Recovered" : 0, 
        "Deaths" : 0, 
        "Long_" : 27.849332, 
        "Lat" : -13.133897, 
        "Country_Region" : "Zambia", 
        "Province_State_Child" : null
      }
    }, 
    {
      "attributes" : {
        "Province_State" : null, 
        "Confirmed" : 8, 
        "Recovered" : 0, 
        "Deaths" : 1, 
        "Long_" : 29.154857, 
        "Lat" : -19.015438, 
        "Country_Region" : "Zimbabwe", 
        "Province_State_Child" : null
      }
    }, 
    {
      "attributes" : {
        "Province_State" : "Mississippi", 
        "Confirmed" : 937, 
        "Recovered" : 0, 
        "Deaths" : 20, 
        "Long_" : -89.678696, 
        "Lat" : 32.741646, 
        "Country_Region" : "US", 
        "Province_State_Child" : null
      }
    }, 
    {
      "attributes" : {
        "Province_State" : "Grand Princess", 
        "Confirmed" : 103, 
        "Recovered" : 0, 
        "Deaths" : 3, 
        "Long_" : -122.665479, 
        "Lat" : 37.64894, 
        "Country_Region" : "US", 
        "Province_State_Child" : null
      }
    }, 
    {
      "attributes" : {
        "Province_State" : "Oklahoma", 
        "Confirmed" : 568, 
        "Recovered" : 0, 
        "Deaths" : 23, 
        "Long_" : -96.928917, 
        "Lat" : 35.565342, 
        "Country_Region" : "US", 
        "Province_State_Child" : null
      }
    }, 
    {
      "attributes" : {
        "Province_State" : "Delaware", 
        "Confirmed" : 319, 
        "Recovered" : 0, 
        "Deaths" : 10, 
        "Long_" : -75.507141, 
        "Lat" : 39.318523, 
        "Country_Region" : "US", 
        "Province_State_Child" : null
      }
    }, 
    {
      "attributes" : {
        "Province_State" : "Minnesota", 
        "Confirmed" : 629, 
        "Recovered" : 0, 
        "Deaths" : 12, 
        "Long_" : -93.900192, 
        "Lat" : 45.694454, 
        "Country_Region" : "US", 
        "Province_State_Child" : null
      }
    }, 
    {
      "attributes" : {
        "Province_State" : "Illinois", 
        "Confirmed" : 5998, 
        "Recovered" : 0, 
        "Deaths" : 100, 
        "Long_" : -88.986137, 
        "Lat" : 40.349457, 
        "Country_Region" : "US", 
        "Province_State_Child" : null
      }
    }, 
    {
      "attributes" : {
        "Province_State" : "Arkansas", 
        "Confirmed" : 564, 
        "Recovered" : 0, 
        "Deaths" : 8, 
        "Long_" : -92.373123, 
        "Lat" : 34.969704, 
        "Country_Region" : "US", 
        "Province_State_Child" : null
      }
    }, 
    {
      "attributes" : {
        "Province_State" : "New Mexico", 
        "Confirmed" : 316, 
        "Recovered" : 0, 
        "Deaths" : 5, 
        "Long_" : -106.248482, 
        "Lat" : 34.840515, 
        "Country_Region" : "US", 
        "Province_State_Child" : null
      }
    }, 
    {
      "attributes" : {
        "Province_State" : "Indiana", 
        "Confirmed" : 2158, 
        "Recovered" : 0, 
        "Deaths" : 49, 
        "Long_" : -86.258278, 
        "Lat" : 39.849426, 
        "Country_Region" : "US", 
        "Province_State_Child" : null
      }
    }, 
    {
      "attributes" : {
        "Province_State" : "Louisiana", 
        "Confirmed" : 5237, 
        "Recovered" : 0, 
        "Deaths" : 239, 
        "Long_" : -91.867805, 
        "Lat" : 31.169546, 
        "Country_Region" : "US", 
        "Province_State_Child" : null
      }
    }, 
    {
      "attributes" : {
        "Province_State" : "Texas", 
        "Confirmed" : 3925, 
        "Recovered" : 0, 
        "Deaths" : 58, 
        "Long_" : -97.563461, 
        "Lat" : 31.054487, 
        "Country_Region" : "US", 
        "Province_State_Child" : null
      }
    }, 
    {
      "attributes" : {
        "Province_State" : "Wisconsin", 
        "Confirmed" : 1422, 
        "Recovered" : 0, 
        "Deaths" : 25, 
        "Long_" : -89.616508, 
        "Lat" : 44.268543, 
        "Country_Region" : "US", 
        "Province_State_Child" : null
      }
    }, 
    {
      "attributes" : {
        "Province_State" : "Kansas", 
        "Confirmed" : 441, 
        "Recovered" : 0, 
        "Deaths" : 10, 
        "Long_" : -96.726486, 
        "Lat" : 38.5266, 
        "Country_Region" : "US", 
        "Province_State_Child" : null
      }
    }, 
    {
      "attributes" : {
        "Province_State" : "Connecticut", 
        "Confirmed" : 3128, 
        "Recovered" : 0, 
        "Deaths" : 69, 
        "Long_" : -72.755371, 
        "Lat" : 41.597782, 
        "Country_Region" : "US", 
        "Province_State_Child" : null
      }
    }, 
    {
      "attributes" : {
        "Province_State" : "Virgin Islands", 
        "Confirmed" : 30, 
        "Recovered" : 0, 
        "Deaths" : 0, 
        "Long_" : -64.8963, 
        "Lat" : 18.3358, 
        "Country_Region" : "US", 
        "Province_State_Child" : null
      }
    }, 
    {
      "attributes" : {
        "Province_State" : "California", 
        "Confirmed" : 8584, 
        "Recovered" : 0, 
        "Deaths" : 183, 
        "Long_" : -119.681564, 
        "Lat" : 36.116203, 
        "Country_Region" : "US", 
        "Province_State_Child" : null
      }
    }, 
    {
      "attributes" : {
        "Province_State" : "Puerto Rico", 
        "Confirmed" : 286, 
        "Recovered" : 0, 
        "Deaths" : 11, 
        "Long_" : -66.5901, 
        "Lat" : 18.2208, 
        "Country_Region" : "US", 
        "Province_State_Child" : null
      }
    }, 
    {
      "attributes" : {
        "Province_State" : "Georgia", 
        "Confirmed" : 4117, 
        "Recovered" : 0, 
        "Deaths" : 125, 
        "Long_" : -83.643074, 
        "Lat" : 33.040619, 
        "Country_Region" : "US", 
        "Province_State_Child" : null
      }
    }, 
    {
      "attributes" : {
        "Province_State" : "North Dakota", 
        "Confirmed" : 126, 
        "Recovered" : 0, 
        "Deaths" : 3, 
        "Long_" : -99.784012, 
        "Lat" : 47.528912, 
        "Country_Region" : "US", 
        "Province_State_Child" : null
      }
    }, 
    {
      "attributes" : {
        "Province_State" : "Pennsylvania", 
        "Confirmed" : 4994, 
        "Recovered" : 0, 
        "Deaths" : 67, 
        "Long_" : -77.209755, 
        "Lat" : 40.590752, 
        "Country_Region" : "US", 
        "Province_State_Child" : null
      }
    }, 
    {
      "attributes" : {
        "Province_State" : "West Virginia", 
        "Confirmed" : 162, 
        "Recovered" : 0, 
        "Deaths" : 1, 
        "Long_" : -80.954453, 
        "Lat" : 38.491226, 
        "Country_Region" : "US", 
        "Province_State_Child" : null
      }
    }, 
    {
      "attributes" : {
        "Province_State" : "Alaska", 
        "Confirmed" : 132, 
        "Recovered" : 0, 
        "Deaths" : 3, 
        "Long_" : -152.404419, 
        "Lat" : 61.370716, 
        "Country_Region" : "US", 
        "Province_State_Child" : null
      }
    }, 
    {
      "attributes" : {
        "Province_State" : "Tennessee", 
        "Confirmed" : 2391, 
        "Recovered" : 0, 
        "Deaths" : 23, 
        "Long_" : -86.692345, 
        "Lat" : 35.747845, 
        "Country_Region" : "US", 
        "Province_State_Child" : null
      }
    }, 
    {
      "attributes" : {
        "Province_State" : "Missouri", 
        "Confirmed" : 1406, 
        "Recovered" : 0, 
        "Deaths" : 15, 
        "Long_" : -92.288368, 
        "Lat" : 38.456085, 
        "Country_Region" : "US", 
        "Province_State_Child" : null
      }
    }, 
    {
      "attributes" : {
        "Province_State" : "South Dakota", 
        "Confirmed" : 108, 
        "Recovered" : 0, 
        "Deaths" : 1, 
        "Long_" : -99.438828, 
        "Lat" : 44.299782, 
        "Country_Region" : "US", 
        "Province_State_Child" : null
      }
    }, 
    {
      "attributes" : {
        "Province_State" : "Colorado", 
        "Confirmed" : 2968, 
        "Recovered" : 0, 
        "Deaths" : 69, 
        "Long_" : -105.311104, 
        "Lat" : 39.059811, 
        "Country_Region" : "US", 
        "Province_State_Child" : null
      }
    }, 
    {
      "attributes" : {
        "Province_State" : "New Jersey", 
        "Confirmed" : 18997, 
        "Recovered" : 0, 
        "Deaths" : 267, 
        "Long_" : -74.521011, 
        "Lat" : 40.298904, 
        "Country_Region" : "US", 
        "Province_State_Child" : null
      }
    }, 
    {
      "attributes" : {
        "Province_State" : "Guam", 
        "Confirmed" : 77, 
        "Recovered" : 0, 
        "Deaths" : 2, 
        "Long_" : 144.7937, 
        "Lat" : 13.4443, 
        "Country_Region" : "US", 
        "Province_State_Child" : null
      }
    }, 
    {
      "attributes" : {
        "Province_State" : "Washington", 
        "Confirmed" : 5482, 
        "Recovered" : 0, 
        "Deaths" : 225, 
        "Long_" : -121.490494, 
        "Lat" : 47.400902, 
        "Country_Region" : "US", 
        "Province_State_Child" : null
      }
    }, 
    {
      "attributes" : {
        "Province_State" : "New York", 
        "Confirmed" : 76049, 
        "Recovered" : 0, 
        "Deaths" : 1714, 
        "Long_" : -74.948051, 
        "Lat" : 42.165726, 
        "Country_Region" : "US", 
        "Province_State_Child" : null
      }
    }, 
    {
      "attributes" : {
        "Province_State" : "Nevada", 
        "Confirmed" : 1138, 
        "Recovered" : 0, 
        "Deaths" : 26, 
        "Long_" : -117.055374, 
        "Lat" : 38.313515, 
        "Country_Region" : "US", 
        "Province_State_Child" : null
      }
    }, 
    {
      "attributes" : {
        "Province_State" : "Northern Mariana Islands", 
        "Confirmed" : 6, 
        "Recovered" : 0, 
        "Deaths" : 1, 
        "Long_" : 145.6739, 
        "Lat" : 15.0979, 
        "Country_Region" : "US", 
        "Province_State_Child" : null
      }
    }, 
    {
      "attributes" : {
        "Province_State" : "Diamond Princess", 
        "Confirmed" : 49, 
        "Recovered" : 0, 
        "Deaths" : 0, 
        "Long_" : 139.638, 
        "Lat" : 35.4437, 
        "Country_Region" : "US", 
        "Province_State_Child" : null
      }
    }, 
    {
      "attributes" : {
        "Province_State" : "Maryland", 
        "Confirmed" : 1986, 
        "Recovered" : 0, 
        "Deaths" : 31, 
        "Long_" : -76.802101, 
        "Lat" : 39.063946, 
        "Country_Region" : "US", 
        "Province_State_Child" : null
      }
    }, 
    {
      "attributes" : {
        "Province_State" : "Idaho", 
        "Confirmed" : 524, 
        "Recovered" : 0, 
        "Deaths" : 9, 
        "Long_" : -114.478828, 
        "Lat" : 44.240459, 
        "Country_Region" : "US", 
        "Province_State_Child" : null
      }
    }, 
    {
      "attributes" : {
        "Province_State" : "Wyoming", 
        "Confirmed" : 120, 
        "Recovered" : 0, 
        "Deaths" : 0, 
        "Long_" : -107.30249, 
        "Lat" : 42.755966, 
        "Country_Region" : "US", 
        "Province_State_Child" : null
      }
    }, 
    {
      "attributes" : {
        "Province_State" : "Arizona", 
        "Confirmed" : 1289, 
        "Recovered" : 0, 
        "Deaths" : 24, 
        "Long_" : -111.431221, 
        "Lat" : 33.729759, 
        "Country_Region" : "US", 
        "Province_State_Child" : null
      }
    }, 
    {
      "attributes" : {
        "Province_State" : "Iowa", 
        "Confirmed" : 497, 
        "Recovered" : 0, 
        "Deaths" : 7, 
        "Long_" : -93.210526, 
        "Lat" : 42.011539, 
        "Country_Region" : "US", 
        "Province_State_Child" : null
      }
    }, 
    {
      "attributes" : {
        "Province_State" : "Michigan", 
        "Confirmed" : 7615, 
        "Recovered" : 0, 
        "Deaths" : 259, 
        "Long_" : -84.536095, 
        "Lat" : 43.326618, 
        "Country_Region" : "US", 
        "Province_State_Child" : null
      }
    }, 
    {
      "attributes" : {
        "Province_State" : "Utah", 
        "Confirmed" : 888, 
        "Recovered" : 0, 
        "Deaths" : 5, 
        "Long_" : -111.862434, 
        "Lat" : 40.150032, 
        "Country_Region" : "US", 
        "Province_State_Child" : null
      }
    }, 
    {
      "attributes" : {
        "Province_State" : "Virginia", 
        "Confirmed" : 1249, 
        "Recovered" : 0, 
        "Deaths" : 27, 
        "Long_" : -78.169968, 
        "Lat" : 37.769337, 
        "Country_Region" : "US", 
        "Province_State_Child" : null
      }
    }, 
    {
      "attributes" : {
        "Province_State" : "Oregon", 
        "Confirmed" : 692, 
        "Recovered" : 0, 
        "Deaths" : 18, 
        "Long_" : -122.070938, 
        "Lat" : 44.572021, 
        "Country_Region" : "US", 
        "Province_State_Child" : null
      }
    }, 
    {
      "attributes" : {
        "Province_State" : "Montana", 
        "Confirmed" : 198, 
        "Recovered" : 0, 
        "Deaths" : 5, 
        "Long_" : -110.454353, 
        "Lat" : 46.921925, 
        "Country_Region" : "US", 
        "Province_State_Child" : null
      }
    }, 
    {
      "attributes" : {
        "Province_State" : "New Hampshire", 
        "Confirmed" : 357, 
        "Recovered" : 0, 
        "Deaths" : 3, 
        "Long_" : -71.563896, 
        "Lat" : 43.452492, 
        "Country_Region" : "US", 
        "Province_State_Child" : null
      }
    }, 
    {
      "attributes" : {
        "Province_State" : "Massachusetts", 
        "Confirmed" : 6620, 
        "Recovered" : 0, 
        "Deaths" : 89, 
        "Long_" : -71.530106, 
        "Lat" : 42.230171, 
        "Country_Region" : "US", 
        "Province_State_Child" : null
      }
    }, 
    {
      "attributes" : {
        "Province_State" : "South Carolina", 
        "Confirmed" : 1083, 
        "Recovered" : 0, 
        "Deaths" : 22, 
        "Long_" : -80.945007, 
        "Lat" : 33.856892, 
        "Country_Region" : "US", 
        "Province_State_Child" : null
      }
    }, 
    {
      "attributes" : {
        "Province_State" : "Vermont", 
        "Confirmed" : 293, 
        "Recovered" : 0, 
        "Deaths" : 13, 
        "Long_" : -72.710686, 
        "Lat" : 44.045876, 
        "Country_Region" : "US", 
        "Province_State_Child" : null
      }
    }, 
    {
      "attributes" : {
        "Province_State" : "Florida", 
        "Confirmed" : 6741, 
        "Recovered" : 0, 
        "Deaths" : 85, 
        "Long_" : -81.686783, 
        "Lat" : 27.766279, 
        "Country_Region" : "US", 
        "Province_State_Child" : null
      }
    }, 
    {
      "attributes" : {
        "Province_State" : "Hawaii", 
        "Confirmed" : 224, 
        "Recovered" : 0, 
        "Deaths" : 1, 
        "Long_" : -157.498337, 
        "Lat" : 21.094318, 
        "Country_Region" : "US", 
        "Province_State_Child" : null
      }
    }, 
    {
      "attributes" : {
        "Province_State" : "Kentucky", 
        "Confirmed" : 632, 
        "Recovered" : 0, 
        "Deaths" : 18, 
        "Long_" : -84.670067, 
        "Lat" : 37.66814, 
        "Country_Region" : "US", 
        "Province_State_Child" : null
      }
    }, 
    {
      "attributes" : {
        "Province_State" : "Rhode Island", 
        "Confirmed" : 488, 
        "Recovered" : 0, 
        "Deaths" : 8, 
        "Long_" : -71.51178, 
        "Lat" : 41.680893, 
        "Country_Region" : "US", 
        "Province_State_Child" : null
      }
    }, 
    {
      "attributes" : {
        "Province_State" : "Nebraska", 
        "Confirmed" : 177, 
        "Recovered" : 0, 
        "Deaths" : 4, 
        "Long_" : -98.268082, 
        "Lat" : 41.12537, 
        "Country_Region" : "US", 
        "Province_State_Child" : null
      }
    }, 
    {
      "attributes" : {
        "Province_State" : "Ohio", 
        "Confirmed" : 2199, 
        "Recovered" : 0, 
        "Deaths" : 55, 
        "Long_" : -82.764915, 
        "Lat" : 40.388783, 
        "Country_Region" : "US", 
        "Province_State_Child" : null
      }
    }, 
    {
      "attributes" : {
        "Province_State" : "Alabama", 
        "Confirmed" : 999, 
        "Recovered" : 0, 
        "Deaths" : 24, 
        "Long_" : -86.9023, 
        "Lat" : 32.3182, 
        "Country_Region" : "US", 
        "Province_State_Child" : null
      }
    }, 
    {
      "attributes" : {
        "Province_State" : "North Carolina", 
        "Confirmed" : 1561, 
        "Recovered" : 0, 
        "Deaths" : 14, 
        "Long_" : -79.806419, 
        "Lat" : 35.630066, 
        "Country_Region" : "US", 
        "Province_State_Child" : null
      }
    }, 
    {
      "attributes" : {
        "Province_State" : "District of Columbia", 
        "Confirmed" : 507, 
        "Recovered" : 0, 
        "Deaths" : 9, 
        "Long_" : -77.026817, 
        "Lat" : 38.897438, 
        "Country_Region" : "US", 
        "Province_State_Child" : null
      }
    }, 
    {
      "attributes" : {
        "Province_State" : "Maine", 
        "Confirmed" : 303, 
        "Recovered" : 0, 
        "Deaths" : 5, 
        "Long_" : -69.381927, 
        "Lat" : 44.693947, 
        "Country_Region" : "US", 
        "Province_State_Child" : null
      }
    }
  ]
}