{
  "objectIdFieldName" : "FID", 
  "uniqueIdField" : 
  {
    "name" : "FID", 
    "isSystemMaintained" : true
  }, 
  "globalIdFieldName" : "", 
  "geometryType" : "esriGeometryPolygon", 
  "spatialReference" : {
    "wkid" : 4326, 
    "latestWkid" : 4326
  }, 
  "fields" : [
    {
      "name" : "Province_State", 
      "type" : "esriFieldTypeString", 
      "alias" : "Province_State", 
      "sqlType" : "sqlTypeOther", 
      "length" : 4000, 
      "domain" : null, 
      "defaultValue" : null
    }, 
    {
      "name" : "Confirmed", 
      "type" : "esriFieldTypeInteger", 
      "alias" : "Confirmed", 
      "sqlType" : "sqlTypeOther", 
      "domain" : null, 
      "defaultValue" : null
    }
  ], 
  "features" : [
    {
      "attributes" : {
        "Province_State" : "London", 
        "Confirmed" : 7121
      }, 
      "centroid" : 
      {
        "x" : -0.11132105881782318, 
        "y" : 51.500922293787973
      }
    }, 
    {
      "attributes" : {
        "Province_State" : "South East", 
        "Confirmed" : 2425
      }, 
      "centroid" : 
      {
        "x" : -0.52920851902482746, 
        "y" : 51.268036221648565
      }
    }, 
    {
      "attributes" : {
        "Province_State" : "South West", 
        "Confirmed" : 966
      }, 
      "centroid" : 
      {
        "x" : -3.1220313968817024, 
        "y" : 51.009489697493038
      }
    }, 
    {
      "attributes" : {
        "Province_State" : "North West", 
        "Confirmed" : 2132
      }, 
      "centroid" : 
      {
        "x" : -2.6091900828750378, 
        "y" : 53.708325289477806
      }
    }, 
    {
      "attributes" : {
        "Province_State" : "East of England", 
        "Confirmed" : 1632
      }, 
      "centroid" : 
      {
        "x" : 0.50376601210384331, 
        "y" : 52.255587132493879
      }
    }, 
    {
      "attributes" : {
        "Province_State" : "Midlands", 
        "Confirmed" : 3570
      }, 
      "centroid" : 
      {
        "x" : -1.4825901296528927, 
        "y" : 52.71526200314571
      }
    }, 
    {
      "attributes" : {
        "Province_State" : "North East and Yorkshire", 
        "Confirmed" : 2348
      }, 
      "centroid" : 
      {
        "x" : -1.7115066995975043, 
        "y" : 54.399825994656396
      }
    }
  ]
}