{
  "objectIdFieldName" : "ObjectId", 
  "uniqueIdField" : 
  {
    "name" : "ObjectId", 
    "isSystemMaintained" : true
  }, 
  "globalIdFieldName" : "", 
  "geometryType" : "esriGeometryPoint", 
  "spatialReference" : {
    "wkid" : 102100, 
    "latestWkid" : 3857
  }, 
  "fields" : [
    {
      "name" : "Country_Region", 
      "type" : "esriFieldTypeString", 
      "alias" : "Country_Region", 
      "sqlType" : "sqlTypeOther", 
      "length" : 4000, 
      "domain" : null, 
      "defaultValue" : null
    }, 
    {
      "name" : "Province_State", 
      "type" : "esriFieldTypeString", 
      "alias" : "Province_State", 
      "sqlType" : "sqlTypeOther", 
      "length" : 4000, 
      "domain" : null, 
      "defaultValue" : null
    }, 
    {
      "name" : "Lat", 
      "type" : "esriFieldTypeDouble", 
      "alias" : "Lat", 
      "sqlType" : "sqlTypeOther", 
      "domain" : null, 
      "defaultValue" : null
    }, 
    {
      "name" : "Long_", 
      "type" : "esriFieldTypeDouble", 
      "alias" : "Long_", 
      "sqlType" : "sqlTypeOther", 
      "domain" : null, 
      "defaultValue" : null
    }, 
    {
      "name" : "Confirmed", 
      "type" : "esriFieldTypeDouble", 
      "alias" : "Confirmed", 
      "sqlType" : "sqlTypeOther", 
      "domain" : null, 
      "defaultValue" : null
    }, 
    {
      "name" : "Deaths", 
      "type" : "esriFieldTypeDouble", 
      "alias" : "Deaths", 
      "sqlType" : "sqlTypeOther", 
      "domain" : null, 
      "defaultValue" : null
    }
  ], 
  "features" : [
    {
      "attributes" : {
        "Country_Region" : "Sweden", 
        "Province_State" : "Orebro", 
        "Lat" : 59.36297168, 
        "Long_" : 14.97160336, 
        "Confirmed" : 109, 
        "Deaths" : 0
      }, 
      "geometry" : 
      {
        "x" : 1666631.2623940636, 
        "y" : 8259256.0275115687
      }
    }, 
    {
      "attributes" : {
        "Country_Region" : "Sweden", 
        "Province_State" : "Dalarnas", 
        "Lat" : 60.97431482, 
        "Long_" : 14.33477612, 
        "Confirmed" : 97, 
        "Deaths" : 9
      }, 
      "geometry" : 
      {
        "x" : 1595739.9783139778, 
        "y" : 8619927.8846800588
      }
    }, 
    {
      "attributes" : {
        "Country_Region" : "Sweden", 
        "Province_State" : "Hallands", 
        "Lat" : 56.96445251, 
        "Long_" : 12.83554239, 
        "Confirmed" : 96, 
        "Deaths" : 7
      }, 
      "geometry" : 
      {
        "x" : 1428846.0429102776, 
        "y" : 7752856.54250279
      }
    }, 
    {
      "attributes" : {
        "Country_Region" : "Sweden", 
        "Province_State" : "Gavleborgs", 
        "Lat" : 61.46150204, 
        "Long_" : 16.28663755, 
        "Confirmed" : 86, 
        "Deaths" : 2
      }, 
      "geometry" : 
      {
        "x" : 1813020.1988006085, 
        "y" : 8732569.546810519
      }
    }, 
    {
      "attributes" : {
        "Country_Region" : "Sweden", 
        "Province_State" : "Jamtlands", 
        "Lat" : 63.28844983, 
        "Long_" : 14.31888925, 
        "Confirmed" : 81, 
        "Deaths" : 0
      }, 
      "geometry" : 
      {
        "x" : 1593971.4600352789, 
        "y" : 9171331.4939425867
      }
    }, 
    {
      "attributes" : {
        "Country_Region" : "Sweden", 
        "Province_State" : "Vastmanlands", 
        "Lat" : 59.81128748, 
        "Long_" : 16.31775576, 
        "Confirmed" : 79, 
        "Deaths" : 2
      }, 
      "geometry" : 
      {
        "x" : 1816484.2620922069, 
        "y" : 8357842.4397230931
      }
    }, 
    {
      "attributes" : {
        "Country_Region" : "Sweden", 
        "Province_State" : "Stockholms", 
        "Lat" : 59.48122278, 
        "Long_" : 18.117565, 
        "Confirmed" : 1979, 
        "Deaths" : 103
      }, 
      "geometry" : 
      {
        "x" : 2016838.1102140353, 
        "y" : 8285132.6233495958
      }
    }, 
    {
      "attributes" : {
        "Country_Region" : "Sweden", 
        "Province_State" : "Gotlands", 
        "Lat" : 57.48918667, 
        "Long_" : 18.51076186, 
        "Confirmed" : 11, 
        "Deaths" : 0
      }, 
      "geometry" : 
      {
        "x" : 2060608.5844507494, 
        "y" : 7860768.5017276732
      }
    }, 
    {
      "attributes" : {
        "Country_Region" : "Sweden", 
        "Province_State" : "V?sterbottens", 
        "Lat" : 64.88703715, 
        "Long_" : 17.80387519, 
        "Confirmed" : 55, 
        "Deaths" : 0
      }, 
      "geometry" : 
      {
        "x" : 1981918.3202977965, 
        "y" : 9578679.3099986445
      }
    }, 
    {
      "attributes" : {
        "Country_Region" : "Sweden", 
        "Province_State" : "Norrbottens", 
        "Lat" : 67.00576722, 
        "Long_" : 20.08324642, 
        "Confirmed" : 51, 
        "Deaths" : 1
      }, 
      "geometry" : 
      {
        "x" : 2235656.7649502344, 
        "y" : 10157702.001186773
      }
    }, 
    {
      "attributes" : {
        "Country_Region" : "Sweden", 
        "Province_State" : "Varmlands", 
        "Lat" : 59.78256137, 
        "Long_" : 13.15456962, 
        "Confirmed" : 50, 
        "Deaths" : 1
      }, 
      "geometry" : 
      {
        "x" : 1464359.9917030663, 
        "y" : 8351485.8701825347
      }
    }, 
    {
      "attributes" : {
        "Country_Region" : "Sweden", 
        "Province_State" : "V?sternorrlands", 
        "Lat" : 63.11604939, 
        "Long_" : 17.26143328, 
        "Confirmed" : 46, 
        "Deaths" : 0
      }, 
      "geometry" : 
      {
        "x" : 1921533.9630916656, 
        "y" : 9128763.2058615647
      }
    }, 
    {
      "attributes" : {
        "Country_Region" : "Sweden", 
        "Province_State" : "Vastra Gotalands", 
        "Lat" : 58.31599278, 
        "Long_" : 12.88556481, 
        "Confirmed" : 399, 
        "Deaths" : 6
      }, 
      "geometry" : 
      {
        "x" : 1434414.513232925, 
        "y" : 8033992.7635059124
      }
    }, 
    {
      "attributes" : {
        "Country_Region" : "Sweden", 
        "Province_State" : "Ostergotlands", 
        "Lat" : 58.3651498, 
        "Long_" : 15.65816436, 
        "Confirmed" : 376, 
        "Deaths" : 6
      }, 
      "geometry" : 
      {
        "x" : 1743058.8833125844, 
        "y" : 8044418.4790329607
      }
    }, 
    {
      "attributes" : {
        "Country_Region" : "Sweden", 
        "Province_State" : "Skane", 
        "Lat" : 55.9558786, 
        "Long_" : 13.59698594, 
        "Confirmed" : 283, 
        "Deaths" : 8
      }, 
      "geometry" : 
      {
        "x" : 1513609.5511641002, 
        "y" : 7549637.3424099833
      }
    }, 
    {
      "attributes" : {
        "Country_Region" : "Sweden", 
        "Province_State" : "Sodermanlands", 
        "Lat" : 59.08477534, 
        "Long_" : 16.68643792, 
        "Confirmed" : 239, 
        "Deaths" : 18
      }, 
      "geometry" : 
      {
        "x" : 1857525.7724079709, 
        "y" : 8198732.693966073
      }
    }, 
    {
      "attributes" : {
        "Country_Region" : "Sweden", 
        "Province_State" : "Uppsala", 
        "Lat" : 60.04683528, 
        "Long_" : 17.67073503, 
        "Confirmed" : 183, 
        "Deaths" : 6
      }, 
      "geometry" : 
      {
        "x" : 1967097.2254824617, 
        "y" : 8410172.6386820339
      }
    }, 
    {
      "attributes" : {
        "Country_Region" : "Sweden", 
        "Province_State" : "Jonkopings", 
        "Lat" : 57.50945536, 
        "Long_" : 14.43507971, 
        "Confirmed" : 126, 
        "Deaths" : 9
      }, 
      "geometry" : 
      {
        "x" : 1606905.7228775152, 
        "y" : 7864967.75725417
      }
    }, 
    {
      "attributes" : {
        "Country_Region" : "Sweden", 
        "Province_State" : "Kronobergs", 
        "Lat" : 56.79553519, 
        "Long_" : 14.57380159, 
        "Confirmed" : 34, 
        "Deaths" : 0
      }, 
      "geometry" : 
      {
        "x" : 1622348.1719210006, 
        "y" : 7718442.1568536712
      }
    }, 
    {
      "attributes" : {
        "Country_Region" : "Sweden", 
        "Province_State" : "Kalmar", 
        "Lat" : 57.25933564, 
        "Long_" : 16.05481988, 
        "Confirmed" : 34, 
        "Deaths" : 1
      }, 
      "geometry" : 
      {
        "x" : 1787214.3738193256, 
        "y" : 7813310.3931101272
      }
    }, 
    {
      "attributes" : {
        "Country_Region" : "Sweden", 
        "Province_State" : "Blekinge", 
        "Lat" : 56.28343004, 
        "Long_" : 15.19168566, 
        "Confirmed" : 21, 
        "Deaths" : 0
      }, 
      "geometry" : 
      {
        "x" : 1691130.7119626759, 
        "y" : 7615046.7102705119
      }
    }
  ]
}